<?xml version="1.0" encoding="utf-8" standalone="no"?>
<!DOCTYPE svg PUBLIC "-//W3C//DTD SVG 1.1//EN"
  "http://www.w3.org/Graphics/SVG/1.1/DTD/svg11.dtd">
<svg height="864pt" version="1.1" viewBox="0 0 864 864" width="864pt" xmlns="http://www.w3.org/2000/svg" xmlns:xlink="http://www.w3.org/1999/xlink">
 <metadata>
  <rdf:RDF xmlns:cc="http://creativecommons.org/ns#" xmlns:dc="http://purl.org/dc/elements/1.1/" xmlns:rdf="http://www.w3.org/1999/02/22-rdf-syntax-ns#">
   <cc:Work>
    <dc:type rdf:resource="http://purl.org/dc/dcmitype/StillImage"/>
    <dc:date>2022-07-01T12:35:37.460787</dc:date>
    <dc:format>image/svg+xml</dc:format>
    <dc:creator>
     <cc:Agent>
      <dc:title>Matplotlib v3.4.2, https://matplotlib.org/</dc:title>
     </cc:Agent>
    </dc:creator>
   </cc:Work>
  </rdf:RDF>
 </metadata>
 <defs>
  <style type="text/css">*{stroke-linecap:butt;stroke-linejoin:round;}</style>
 </defs>
 <g id="figure_1">
  <g id="patch_1">
   <path d="M 0 864 
L 864 864 
L 864 0 
L 0 0 
z
" style="fill:none;"/>
  </g>
  <g id="axes_1">
   <g id="PatchCollection_1">
    <defs>
     <path d="M 274.339022 -624.589905 
L 276.942994 -621.859489 
L 279.331775 -620.024946 
L 280.867419 -617.59311 
L 282.957603 -615.289266 
L 285.474354 -612.046818 
L 288.417673 -610.254939 
L 290.507857 -607.951095 
L 292.043501 -605.348604 
L 294.133684 -602.831441 
L 295.839956 -600.399605 
L 297.204974 -598.010433 
L 298.186081 -595.834581 
L 301.555967 -593.104099 
L 302.963642 -591.568202 
L 305.736334 -591.098901 
L 308.423712 -589.563005 
L 310.940464 -587.515143 
L 312.86002 -586.320557 
L 314.438321 -584.230031 
L 315.547398 -582.352825 
L 316.912415 -579.409024 
L 319.855735 -576.465223 
L 322.543113 -576.550551 
L 324.889238 -576.123912 
L 328.685693 -576.422559 
L 331.629012 -576.422559 
L 333.847166 -576.20924 
L 335.937349 -575.227973 
L 338.752697 -573.564086 
L 341.397419 -570.748276 
L 343.359632 -570.406965 
L 344.895277 -568.999061 
L 347.11343 -567.676483 
L 349.928779 -566.481898 
L 352.31756 -564.4767 
L 355.218223 -563.068795 
L 356.753867 -561.532899 
L 357.905601 -559.698356 
L 360.806263 -558.717089 
L 363.621612 -557.26652 
L 365.839766 -555.645296 
L 368.783085 -554.408047 
L 371.427806 -552.701496 
L 373.134078 -550.354988 
L 377.442415 -547.411186 
L 379.404628 -546.984549 
L 381.1109 -545.320661 
L 384.011562 -544.680704 
L 387.082853 -542.71817 
L 390.196799 -541.395593 
L 392.969491 -541.395593 
L 395.358272 -540.840964 
L 397.021887 -538.195809 
L 399.11207 -536.275939 
L 401.799448 -535.934629 
L 404.145572 -535.294672 
L 406.235756 -534.526724 
L 408.368595 -534.398733 
L 410.032211 -532.22288 
L 412.420991 -531.198949 
L 414.767116 -531.881569 
L 416.302761 -530.004363 
L 416.302761 -526.975234 
L 418.009032 -523.860778 
L 419.928588 -521.386279 
L 422.871908 -521.17296 
L 426.241795 -520.405011 
L 429.185114 -519.167762 
L 429.611682 -516.991909 
L 431.701865 -514.218763 
L 433.36548 -510.762997 
L 436.180829 -508.032514 
L 438.953522 -506.368627 
L 440.233225 -504.406093 
L 443.133888 -504.363429 
L 446.631746 -500.907663 
L 450.684141 -498.817137 
L 453.62746 -497.15325 
L 455.163105 -494.33744 
L 457.551886 -493.228182 
L 463.267898 -488.833812 
L 465.35808 -484.055468 
L 467.064352 -482.26359 
L 468.17343 -479.746426 
L 469.837045 -477.655901 
L 474.614606 -476.034677 
L 478.240434 -475.480048 
L 481.013127 -473.81616 
L 482.420801 -471.640307 
L 484.681611 -470.147075 
L 487.326333 -467.075282 
L 490.099025 -465.198076 
L 494.02345 -462.254275 
L 496.96677 -460.462396 
L 502.29887 -455.982698 
L 503.962485 -454.87344 
L 505.49813 -453.124225 
L 507.88691 -452.398941 
L 509.977094 -450.863045 
L 511.086171 -448.132563 
L 512.920413 -446.809985 
L 515.010596 -442.756926 
L 515.437164 -440.751728 
L 516.802182 -439.258496 
L 519.873471 -437.935918 
L 522.006312 -437.295962 
L 527.039814 -436.186703 
L 529.257967 -435.930721 
L 531.476121 -437.295962 
L 533.608961 -439.045176 
L 536.125712 -440.111771 
L 537.362759 -443.610202 
L 535.955085 -448.431209 
L 537.064162 -450.521734 
L 538.599807 -448.431209 
L 541.415156 -446.596666 
L 541.287185 -443.951512 
L 541.543126 -441.56234 
L 543.633309 -441.349021 
L 545.894119 -440.239763 
L 548.2829 -438.362556 
L 550.501054 -438.234565 
L 555.235958 -436.14404 
L 558.733816 -436.272031 
L 562.231674 -434.01085 
L 565.473591 -435.418755 
L 568.800821 -434.224169 
L 571.189602 -432.261635 
L 574.388862 -430.939058 
L 575.924507 -429.403162 
L 578.313288 -424.240844 
L 580.574098 -422.491629 
L 582.237713 -423.942197 
L 584.327897 -424.582154 
L 586.844648 -425.648749 
L 588.508263 -424.582154 
L 590.897044 -424.326171 
L 593.968333 -425.094119 
L 596.783682 -424.368836 
L 599.129806 -422.918266 
L 601.518587 -422.576956 
L 602.926261 -424.667482 
L 605.698953 -424.8808 
L 608.642273 -425.648749 
L 612.2681 -427.952593 
L 614.528911 -428.635213 
L 616.192527 -430.256437 
L 616.619094 -433.66954 
L 617.728171 -435.632074 
L 622.079165 -432.986919 
L 625.577022 -431.579015 
L 627.667206 -429.8298 
L 629.757389 -430.597747 
L 631.847572 -431.152376 
L 634.662921 -433.456221 
L 637.009045 -434.992117 
L 640.080334 -435.717402 
L 643.194281 -435.845393 
L 644.857896 -438.789194 
L 646.649482 -440.239763 
L 648.611694 -440.965047 
L 650.701878 -440.794392 
L 651.981582 -442.884917 
L 655.351469 -446.596666 
L 659.233238 -443.738193 
L 661.195451 -442.543607 
L 664.26674 -441.988978 
L 667.508657 -443.610202 
L 671.006515 -445.146098 
L 673.096698 -445.914045 
L 678.94068 -446.596666 
L 680.902893 -444.164831 
L 682.438537 -441.988978 
L 684.699348 -440.538409 
L 687.216099 -437.807927 
L 688.751744 -435.760065 
L 689.73285 -433.456221 
L 691.951003 -432.218971 
L 692.93211 -430.043118 
L 695.19292 -428.421894 
L 696.301997 -426.67268 
L 697.837642 -425.136783 
L 699.799855 -423.899534 
L 704.534759 -419.633155 
L 707.478079 -416.774682 
L 709.440292 -414.38551 
L 711.103907 -412.636295 
L 713.19409 -413.830881 
L 715.284274 -412.721622 
L 718.782131 -408.028606 
L 719.635267 -405.938081 
L 721.59748 -404.658167 
L 724.242202 -404.871486 
L 725.649876 -403.420918 
L 727.740059 -402.354323 
L 730.683378 -403.122271 
L 734.607804 -398.642574 
L 736.52736 -395.99742 
L 739.897247 -394.674842 
L 743.693703 -395.10148 
L 746.594364 -393.266937 
L 744.376211 -389.512524 
L 735.418283 -379.102561 
L 733.072159 -376.84138 
L 731.792455 -378.590596 
L 730.683378 -380.425139 
L 726.758953 -384.478197 
L 725.095338 -385.502128 
L 723.559693 -387.123352 
L 722.152018 -389.213878 
L 719.080729 -391.816368 
L 716.990545 -392.797636 
L 715.710841 -394.461523 
L 714.303167 -395.912091 
L 712.511582 -398.429255 
L 709.440292 -401.245065 
L 707.051511 -402.695633 
L 705.387895 -404.871486 
L 702.444577 -407.815287 
L 700.482363 -408.711227 
L 696.856536 -409.223192 
L 694.339784 -409.99114 
L 691.823033 -411.527037 
L 688.453146 -412.550967 
L 685.125915 -411.868347 
L 682.865105 -411.5697 
L 680.646952 -411.5697 
L 678.130201 -411.185726 
L 675.74142 -410.119131 
L 674.077804 -408.924546 
L 671.987621 -407.132666 
L 669.59884 -405.298124 
L 667.935225 -404.188866 
L 664.565338 -404.23153 
L 661.749989 -404.871486 
L 656.887114 -406.620702 
L 652.962688 -406.364719 
L 650.019369 -404.615503 
L 641.914577 -403.762228 
L 637.307642 -400.050478 
L 635.4734 -397.746634 
L 633.127276 -395.912091 
L 630.183957 -394.674842 
L 628.093773 -393.352265 
L 626.259531 -390.536455 
L 625.278425 -385.928767 
L 623.61481 -384.520862 
L 621.226029 -383.624922 
L 618.837248 -381.875707 
L 616.491124 -378.718587 
L 615.637988 -376.073433 
L 617.728171 -373.556269 
L 618.837248 -370.271158 
L 620.372893 -368.649934 
L 622.207135 -365.66347 
L 624.169348 -362.804996 
L 623.060271 -361.055781 
L 622.079165 -358.666609 
L 623.060271 -355.594817 
L 621.652597 -352.736343 
L 620.244923 -350.432499 
L 620.799461 -346.720749 
L 621.098059 -343.776948 
L 619.690384 -341.686423 
L 617.173633 -339.85188 
L 615.21142 -338.060001 
L 610.903083 -330.423184 
L 609.751349 -327.991349 
L 607.831793 -325.943487 
L 605.869581 -324.279599 
L 603.182202 -323.596979 
L 602.627664 -320.525186 
L 603.736741 -318.605316 
L 604.888474 -315.960162 
L 602.499694 -315.106886 
L 601.092019 -313.528326 
L 602.499694 -311.352473 
L 602.073125 -308.493999 
L 602.073125 -306.190155 
L 601.262646 -304.227622 
L 599.001836 -302.137096 
L 594.522872 -301.923777 
L 592.304718 -301.497139 
L 590.897044 -299.321286 
L 589.233429 -297.230761 
L 586.844648 -296.334822 
L 584.199926 -296.462813 
L 581.683175 -296.804123 
L 579.592992 -295.609537 
L 576.777643 -292.409753 
L 576.777643 -287.162108 
L 574.943401 -286.05285 
L 572.853217 -286.522151 
L 570.208495 -286.138177 
L 570.336466 -278.84267 
L 567.691744 -277.861403 
L 565.302963 -277.392101 
L 559.160385 -281.487825 
L 554.425479 -285.754203 
L 560.01352 -288.698004 
L 557.198172 -293.519011 
L 554.553451 -296.121502 
L 549.818545 -293.94565 
L 544.614416 -303.374345 
L 542.396262 -307.640724 
L 536.381653 -315.533524 
L 533.864902 -313.997627 
L 531.646748 -315.192214 
L 526.869187 -313.528326 
L 524.096494 -312.803042 
L 519.873471 -310.712516 
L 516.972809 -308.28068 
L 515.437164 -306.0195 
L 509.977094 -303.331682 
L 507.88691 -301.198492 
L 504.815621 -300.089234 
L 502.853408 -297.913381 
L 502.128243 -295.268227 
L 499.056953 -294.798925 
L 495.857693 -294.798925 
L 494.02345 -295.694864 
L 491.634669 -296.676132 
L 489.971054 -297.998709 
L 487.582274 -302.265087 
L 485.36412 -303.161027 
L 482.975339 -303.587664 
L 480.885156 -303.033035 
L 478.667002 -302.691725 
L 473.334902 -300.302553 
L 468.472027 -299.833251 
L 466.211216 -300.601199 
L 464.249004 -299.833251 
L 456.57078 -301.83845 
L 450.684141 -304.483604 
L 446.503775 -304.654259 
L 440.915734 -307.299414 
L 438.825551 -307.982034 
L 436.991308 -309.816577 
L 434.901125 -311.267145 
L 433.23751 -313.997627 
L 434.474557 -316.72811 
L 435.882231 -318.391997 
L 441.89684 -324.919556 
L 445.650639 -328.759296 
L 451.835875 -335.414847 
L 452.518384 -337.93201 
L 450.129603 -339.595898 
L 447.356911 -340.918475 
L 444.84016 -341.771751 
L 442.195438 -342.241052 
L 440.233225 -343.990267 
L 438.271012 -344.843543 
L 436.991308 -346.422103 
L 434.474557 -346.848741 
L 431.957806 -346.934068 
L 429.014487 -346.848741 
L 424.834121 -347.574025 
L 421.762831 -347.019396 
L 419.544677 -341.98507 
L 415.748222 -337.93201 
L 416.857299 -336.097467 
L 418.392943 -332.897684 
L 420.525784 -329.313926 
L 421.208293 -325.815496 
L 418.990138 -324.364927 
L 416.857299 -324.492919 
L 414.511175 -323.085014 
L 411.994424 -322.658376 
L 408.368595 -322.530385 
L 405.126679 -322.871695 
L 402.481957 -323.852961 
L 399.837235 -325.474185 
L 398.130963 -326.668771 
L 395.486242 -318.690644 
L 393.396059 -318.775971 
L 390.324769 -318.136014 
L 388.917094 -313.997627 
L 388.490527 -310.797844 
L 376.759907 -313.656317 
L 377.741013 -309.603258 
L 353.000069 -323.298332 
L 347.11343 -325.900823 
L 344.895277 -320.994488 
L 342.933064 -318.008023 
L 343.231662 -315.746843 
L 345.748413 -314.552257 
L 342.634467 -309.389939 
L 340.714911 -304.782251 
L 338.752697 -301.28382 
L 334.145763 -303.587664 
L 332.866059 -301.62513 
L 327.150048 -304.910242 
L 323.097652 -305.763517 
L 315.675369 -294.030977 
L 310.513896 -294.62827 
L 305.181796 -295.694864 
L 303.51818 -290.873857 
L 301.683938 -286.266169 
L 301.427997 -283.962324 
L 298.783276 -279.354635 
L 296.650435 -276.197516 
L 294.304312 -277.60542 
L 288.545644 -278.50136 
L 286.754058 -279.3973 
L 284.663874 -276.880136 
L 281.293988 -277.60542 
L 279.459745 -275.301576 
L 281.293988 -272.699085 
L 278.777236 -272.485766 
L 280.184911 -270.651224 
L 277.79613 -269.883276 
L 277.924101 -267.238121 
L 275.833917 -267.238121 
L 276.388455 -264.592966 
L 275.833917 -262.075803 
L 274.042331 -259.55864 
L 272.336059 -254.652305 
L 270.800415 -251.452521 
L 268.582261 -249.191341 
L 265.638942 -245.01029 
L 263.250161 -245.863566 
L 260.050901 -240.530592 
L 258.387286 -242.791774 
L 257.66212 -246.204876 
L 256.254446 -247.655444 
L 248.021683 -249.489987 
L 220.508047 -254.652305 
L 217.564728 -255.761563 
L 203.871895 -257.809425 
L 195.468506 -259.55864 
L 188.771388 -260.753226 
L 161.940261 -266.128863 
L 144.024404 -269.499301 
L 138.436364 -271.376508 
L 145.986617 -280.933195 
L 154.390007 -290.2339 
L 156.309563 -301.966441 
L 159.55148 -313.57099 
L 162.75074 -324.151608 
L 168.637378 -345.099526 
L 171.026159 -354.613549 
L 175.761063 -371.465744 
L 177.851247 -373.854916 
L 182.20224 -378.249286 
L 184.718992 -381.747715 
L 191.970648 -388.659249 
L 194.359429 -390.067153 
L 195.596476 -392.498989 
L 198.966363 -398.301264 
L 204.682374 -409.009873 
L 207.924291 -412.209657 
L 208.052262 -416.988001 
L 207.625693 -422.918266 
L 207.071155 -425.77674 
L 205.791451 -429.061852 
L 206.090049 -432.688273 
L 207.924291 -436.698669 
L 208.180232 -442.202297 
L 209.715877 -449.071166 
L 210.696983 -451.417674 
L 210.696983 -454.233484 
L 211.550119 -458.713181 
L 211.80606 -461.443663 
L 212.531225 -464.3448 
L 211.80606 -470.019084 
L 209.289308 -469.891092 
L 207.327096 -471.128342 
L 205.791451 -474.200134 
L 204.980972 -476.247996 
L 205.663481 -484.012804 
L 204.682374 -485.890011 
L 203.871895 -488.193855 
L 200.629979 -494.977397 
L 198.667765 -497.409232 
L 195.767103 -498.561154 
L 192.525186 -497.707879 
L 189.325926 -500.31037 
L 187.363713 -502.400895 
L 190.008435 -504.278101 
L 193.079725 -506.155308 
L 195.041937 -507.221903 
L 193.079725 -508.88579 
L 190.989541 -509.781729 
L 188.34482 -509.995048 
L 186.084009 -510.762997 
L 182.20224 -511.061643 
L 183.439288 -515.754659 
L 189.880464 -519.722391 
L 193.506292 -522.538201 
L 189.155299 -524.543398 
L 190.008435 -527.060562 
L 200.757949 -534.740043 
L 202.890789 -535.465327 
L 204.853001 -536.702577 
L 206.943185 -537.683844 
L 208.308203 -539.731705 
L 209.161338 -542.163541 
L 210.441042 -545.107342 
L 212.787166 -549.629703 
L 214.87735 -554.962676 
L 212.957794 -558.461107 
L 210.995581 -561.532899 
L 208.73477 -564.4767 
L 207.753664 -568.572423 
L 206.388647 -579.153041 
L 211.422149 -579.36636 
L 217.26613 -578.641076 
L 220.209449 -578.086447 
L 223.40871 -577.958455 
L 227.333135 -577.617145 
L 229.721916 -577.659809 
L 229.551288 -579.963653 
L 235.011359 -585.211299 
L 237.101542 -586.960514 
L 239.490323 -589.776323 
L 263.548759 -612.132146 
L 265.084404 -614.649309 
L 261.159978 -616.270533 
L 258.088688 -617.166473 
L 256.254446 -618.147739 
L 254.036292 -618.361058 
L 251.818139 -618.019748 
L 249.00279 -617.379791 
L 246.187441 -618.403722 
L 249.13076 -621.646169 
L 252.500648 -623.523376 
L 255.27334 -621.902152 
L 257.66212 -622.115471 
L 260.178872 -624.931281 
L 262.269054 -626.680496 
L 264.956433 -627.576436 
L 271.354953 -625.82722 
L 274.339022 -624.589905 
" id="m7d009193b6" style="stroke:#000000;"/>
    </defs>
    <g clip-path="url(#p1feb43813a)">
     <use style="fill:#ffffff;stroke:#000000;" x="0" xlink:href="#m7d009193b6" y="864"/>
    </g>
   </g>
   <g id="PatchCollection_2">
    <path clip-path="url(#p1feb43813a)" d="M 258.785931 271.216053 
L 261.174711 272.495967 
L 263.392865 274.373173 
L 265.355078 275.695751 
L 267.06135 276.25038 
L 268.298397 277.231646 
L 270.687178 277.658285 
L 272.905331 278.554224 
L 276.701786 280.303439 
L 279.645106 280.388767 
L 282.545769 280.730077 
L 284.38001 282.180646 
L 286.214253 283.332568 
L 289.712111 284.14318 
L 291.375726 285.337766 
L 292.7834 287.214972 
L 294.447015 288.537549 
L 295.556092 290.030782 
L 296.281258 291.566678 
L 297.646276 292.803927 
L 300.333654 293.017246 
L 300.461624 291.481351 
L 301.144133 290.030782 
L 299.480518 288.409558 
L 296.963766 286.447024 
L 298.371441 284.48449 
L 298.627382 282.479292 
L 301.698672 282.137982 
L 305.921695 282.607283 
L 307.45734 283.24724 
L 311.211138 285.252438 
L 313.727889 284.48449 
L 316.372611 284.14318 
L 319.059989 287.172308 
L 320.595634 288.068248 
L 322.557847 287.513618 
L 324.221462 288.153575 
L 325.629136 287.769601 
L 328.700426 287.64161 
L 333.17939 287.726938 
L 334.416438 288.068248 
L 335.952082 288.836196 
L 337.786325 290.158773 
L 339.57791 290.926722 
L 341.412152 293.315893 
L 343.374365 293.657204 
L 346.317685 296.302358 
L 347.85333 296.473013 
L 349.943512 297.582271 
L 352.332293 299.587469 
L 354.550447 300.654064 
L 355.787494 301.422012 
L 356.7686 302.53127 
L 357.920335 304.365813 
L 360.437086 304.621796 
L 361.247565 306.115028 
L 363.636346 306.797649 
L 365.04402 308.290881 
L 366.707635 308.546864 
L 368.797818 309.656122 
L 370.888001 310.509398 
L 371.869108 312.173285 
L 373.148812 313.709182 
L 377.457149 316.652983 
L 379.419361 317.07962 
L 381.125634 318.743508 
L 383.343787 319.084818 
L 386.415077 320.663379 
L 387.694781 322.02862 
L 390.211532 322.668576 
L 392.984224 322.668576 
L 395.373005 323.223205 
L 396.610052 325.100412 
L 397.463188 326.636308 
L 399.126804 327.78823 
L 401.814181 328.172204 
L 404.160306 328.769497 
L 406.250489 329.537445 
L 408.383329 329.708101 
L 410.046944 331.841289 
L 412.435725 332.86522 
L 414.781849 332.1826 
L 416.317494 334.059807 
L 416.317494 337.088935 
L 417.469228 339.520771 
L 418.578304 340.928676 
L 419.132843 342.592563 
L 420.668487 342.805882 
L 422.886641 342.891209 
L 425.403392 343.23252 
L 426.939037 344.043131 
L 429.199848 344.896407 
L 429.626415 347.114924 
L 431.418001 348.949467 
L 431.844569 350.826673 
L 432.953646 352.447897 
L 433.678811 354.197112 
L 435.214457 355.946327 
L 437.176669 356.159646 
L 438.968255 357.695542 
L 440.247959 359.658076 
L 443.148621 359.70074 
L 446.646479 363.156506 
L 450.016366 364.607075 
L 451.42404 366.01498 
L 453.642194 366.91092 
L 454.623301 369.214764 
L 455.732377 370.196031 
L 457.56662 370.835987 
L 463.282631 375.230357 
L 464.135767 376.552934 
L 464.135767 378.088831 
L 465.372814 380.008701 
L 467.079086 381.80058 
L 468.188163 384.317743 
L 469.851778 386.408268 
L 474.62934 388.029492 
L 478.255168 388.584121 
L 480.643949 389.778708 
L 479.918783 391.655914 
L 476.591552 397.03155 
L 478.937677 398.866093 
L 480.345351 400.188671 
L 477.700629 405.777626 
L 476.591552 407.74016 
L 472.240559 414.523701 
L 469.29724 417.808813 
L 467.761595 416.187589 
L 463.581229 413.329116 
L 461.320418 417.936805 
L 459.528833 420.880606 
L 457.012082 423.099122 
L 455.604407 421.093924 
L 453.642194 419.003399 
L 452.533117 415.974271 
L 450.997473 413.969072 
L 450.016366 412.262521 
L 448.054153 410.939944 
L 446.262567 409.489375 
L 443.148621 405.777626 
L 441.612976 404.156402 
L 440.375929 403.047144 
L 438.541687 403.260463 
L 436.750101 403.175136 
L 435.470397 400.188671 
L 434.361321 395.45299 
L 431.97254 392.167879 
L 431.16206 389.650716 
L 429.02922 387.730846 
L 427.365605 386.706915 
L 425.70199 385.853639 
L 423.867747 385.384338 
L 423.057268 388.370802 
L 421.350996 391.314603 
L 419.260813 392.765172 
L 417.2986 390.759974 
L 416.317494 389.266742 
L 414.952477 388.285475 
L 411.454619 386.834906 
L 409.193808 385.427002 
L 406.805028 384.403071 
L 404.160306 383.677786 
L 401.643555 381.885908 
L 399.553371 380.691321 
L 401.216986 377.40621 
L 400.662448 375.443676 
L 398.870863 375.017039 
L 397.03662 374.334418 
L 391.875147 371.731927 
L 390.339502 371.177298 
L 388.63323 371.09197 
L 384.751462 370.40935 
L 382.917219 369.1721 
L 382.362681 368.190833 
L 381.253604 364.180437 
L 379.291391 363.967118 
L 377.627776 363.497816 
L 375.921504 361.961921 
L 373.70335 360.468688 
L 372.039735 358.46349 
L 369.778925 356.799603 
L 368.24328 355.30637 
L 367.006233 353.855802 
L 364.190884 351.551958 
L 362.356642 350.698682 
L 360.565056 350.058725 
L 358.730814 350.784009 
L 356.64063 351.167983 
L 353.142773 349.162786 
L 348.237241 347.754881 
L 346.317685 347.328243 
L 344.483442 346.090993 
L 340.985585 344.597761 
L 337.359756 341.909942 
L 335.824112 343.360511 
L 334.288467 342.933873 
L 332.880793 342.293917 
L 330.91858 340.715356 
L 329.809503 339.307452 
L 328.828396 337.643564 
L 328.273858 335.723694 
L 328.273858 334.614436 
L 323.666924 331.329324 
L 321.960652 331.414652 
L 319.870468 331.201333 
L 317.097776 330.006747 
L 312.874753 327.617575 
L 311.339108 325.484386 
L 309.547522 324.545783 
L 307.158742 322.967223 
L 305.367156 321.431326 
L 303.234316 318.530189 
L 301.869299 316.439664 
L 298.92598 313.453199 
L 295.001554 308.888174 
L 292.7834 305.901709 
L 289.541483 305.389744 
L 286.598164 306.029701 
L 283.270934 305.901709 
L 280.029017 305.133761 
L 275.422082 302.53127 
L 273.203929 302.104633 
L 270.132639 302.104633 
L 266.506811 301.891314 
L 263.392865 301.422012 
L 258.956558 299.886115 
L 255.4587 298.392883 
L 253.752428 296.601004 
L 254.051026 273.519898 
L 255.032132 271.941338 
L 256.994345 272.111993 
L 258.785931 271.216053 
" style="fill:#008000;fill-opacity:0.5;stroke:#000000;stroke-dasharray:1,1.65;stroke-dashoffset:0;stroke-opacity:0.5;"/>
    <path clip-path="url(#p1feb43813a)" d="M 277.755204 531.305655 
L 276.957727 533.299674 
L 278.79197 535.176881 
L 279.474478 536.712777 
L 281.735289 538.035355 
L 284.934549 538.675311 
L 287.749898 538.675311 
L 290.266649 536.712777 
L 293.039341 535.3902 
L 294.702956 537.139415 
L 296.835796 538.88863 
L 298.499412 538.803302 
L 300.589595 539.016621 
L 302.423837 540.040552 
L 302.679778 542.003086 
L 301.997269 543.96562 
L 302.679778 545.928155 
L 305.495127 548.146671 
L 308.011878 550.621171 
L 311.211138 552.626368 
L 312.618813 553.692963 
L 314.282428 554.67423 
L 316.543238 555.527506 
L 318.334824 556.636764 
L 320.169066 558.044669 
L 322.813788 558.727289 
L 315.690102 570.033192 
L 310.528629 569.435899 
L 306.049665 568.667951 
L 304.215423 568.155986 
L 303.234316 576.006122 
L 301.442731 575.920794 
L 301.698672 577.798 
L 301.442731 580.101845 
L 298.798009 584.709534 
L 296.665169 587.866653 
L 295.129525 586.629404 
L 288.560377 585.562809 
L 286.896762 584.709534 
L 288.005839 581.595077 
L 290.394619 577.798 
L 288.304437 577.11538 
L 286.598164 575.835467 
L 283.270934 576.134113 
L 280.327614 575.920794 
L 278.663999 575.067518 
L 277.128355 573.830269 
L 275.848651 572.294373 
L 274.057065 573.27564 
L 272.478764 573.104984 
L 270.815148 573.488958 
L 269.151533 574.939527 
L 266.890722 577.542018 
L 261.302682 577.798 
L 260.748144 574.726208 
L 260.620173 572.721011 
L 260.620173 563.249651 
L 261.601279 560.903142 
L 260.492203 559.580565 
L 259.084528 556.338118 
L 258.103422 554.546239 
L 255.160102 547.976016 
L 252.38741 548.658637 
L 249.145493 550.27986 
L 249.444091 544.605577 
L 249.870659 539.44326 
L 249.572062 536.627449 
L 247.609849 533.768976 
L 247.908447 531.806442 
L 249.700032 530.355873 
L 251.406304 532.873037 
L 254.178996 533.896967 
L 255.714641 535.859502 
L 256.567777 537.182079 
L 258.65796 536.840768 
L 261.601279 537.523389 
L 261.302682 535.176881 
L 261.601279 533.427666 
L 259.340469 532.659718 
L 259.084528 531.251813 
L 261.601279 530.697184 
L 264.11803 531.038494 
L 266.208214 531.038494 
L 271.113746 531.678451 
L 272.478764 530.142555 
L 271.540314 528.606658 
L 270.132639 527.4974 
L 271.113746 526.132159 
L 272.64939 526.302814 
L 273.3319 528.180021 
L 275.422082 529.801244 
L 277.810863 531.166485 
L 277.755204 531.305655 
" style="fill:#008000;fill-opacity:0.5;stroke:#000000;stroke-dasharray:1,1.65;stroke-dashoffset:0;stroke-opacity:0.5;"/>
    <path clip-path="url(#p1feb43813a)" d="M 312.618813 481.207195 
L 314.154457 481.548506 
L 315.007593 480.311255 
L 316.24464 479.79929 
L 320.425007 479.884618 
L 323.368326 481.975143 
L 324.776 482.444445 
L 327.59135 482.444445 
L 328.956367 480.652566 
L 330.492012 481.121867 
L 333.861899 482.529772 
L 335.525514 482.657764 
L 337.061159 482.95641 
L 341.838721 484.278988 
L 343.502336 484.406979 
L 344.78204 484.748289 
L 348.10927 485.942875 
L 349.090376 485.388246 
L 350.370081 485.174927 
L 351.607128 484.620298 
L 352.716205 484.406979 
L 353.867938 485.388246 
L 355.104985 486.156194 
L 356.384689 486.710823 
L 352.332293 498.400699 
L 353.270743 500.832535 
L 352.886832 502.325768 
L 348.237241 505.098914 
L 346.147058 506.933457 
L 344.91001 506.97612 
L 344.355472 508.042715 
L 340.431046 510.13324 
L 331.771716 517.471411 
L 333.17939 517.983376 
L 335.098946 518.324686 
L 337.061159 518.964644 
L 338.895401 520.073902 
L 340.857614 521.951108 
L 342.947798 524.382944 
L 344.78204 525.91884 
L 346.019087 528.73465 
L 347.85333 529.630589 
L 354.849044 533.555657 
L 356.7686 534.451596 
L 353.014802 540.808501 
L 347.128164 538.163346 
L 344.91001 543.069681 
L 343.075768 545.458853 
L 342.819827 546.696102 
L 343.246395 548.317326 
L 344.611413 548.658637 
L 346.445655 550.066542 
L 342.6492 554.67423 
L 340.729644 559.281918 
L 338.767431 562.780349 
L 334.160497 560.476505 
L 332.880793 562.439039 
L 327.164781 559.153927 
L 323.538953 557.532704 
L 322.813788 558.599298 
L 320.169066 558.044669 
L 317.097776 555.655497 
L 315.9887 555.356851 
L 314.282428 554.67423 
L 312.618813 553.692963 
L 311.211138 552.583705 
L 309.547522 551.51711 
L 302.679778 545.928155 
L 301.698672 544.392258 
L 303.404944 540.467191 
L 302.25321 539.656579 
L 301.016163 539.016621 
L 299.480518 538.803302 
L 295.98266 538.88863 
L 295.001554 537.694044 
L 294.148418 536.414131 
L 293.039341 535.304873 
L 298.627382 529.289279 
L 301.997269 526.132159 
L 303.234316 525.108228 
L 304.38605 523.828315 
L 304.087452 522.079099 
L 303.404944 520.84185 
L 303.660884 519.519273 
L 304.64199 518.665997 
L 304.769961 515.466213 
L 305.495127 513.759662 
L 306.732174 513.759662 
L 307.58531 513.162369 
L 311.509736 509.663939 
L 315.135564 506.165508 
L 313.301321 504.544285 
L 309.803463 501.813802 
L 305.921695 498.315372 
L 305.367156 496.992795 
L 307.030771 494.475632 
L 309.547522 491.74515 
L 310.358002 490.209253 
L 307.713281 489.782616 
L 305.367156 489.014667 
L 304.38605 490.5079 
L 303.106346 492.129123 
L 301.442731 492.811744 
L 300.888193 491.19052 
L 301.997269 488.545366 
L 303.234316 486.881478 
L 305.751068 482.95641 
L 307.286712 482.444445 
L 307.286712 480.908548 
L 308.822357 479.756626 
L 310.528629 479.543307 
L 311.509736 480.140601 
L 312.618813 481.207195 
" style="fill:#008000;fill-opacity:0.5;stroke:#000000;stroke-dasharray:1,1.65;stroke-dashoffset:0;stroke-opacity:0.5;"/>
    <path clip-path="url(#p1feb43813a)" d="M 368.24328 417.040865 
L 369.650955 419.558028 
L 371.31457 419.046063 
L 373.404753 419.899338 
L 376.092131 421.349907 
L 378.011687 422.971131 
L 379.84593 424.805674 
L 381.936113 425.786941 
L 383.642385 427.109518 
L 385.43397 428.560087 
L 387.097586 431.205241 
L 388.803858 433.253103 
L 390.894041 434.447688 
L 393.282822 434.319697 
L 395.628946 435.002318 
L 397.335218 436.623541 
L 399.29743 437.092843 
L 401.216986 438.202101 
L 403.051229 438.842058 
L 406.975654 441.359222 
L 411.582589 442.041842 
L 416.488121 445.07097 
L 418.834245 446.052238 
L 420.924428 447.460143 
L 420.796458 449.380013 
L 416.189523 456.547528 
L 414.781849 456.888838 
L 413.97137 457.912769 
L 412.435725 460.216614 
L 411.156021 461.197881 
L 409.620376 464.227009 
L 407.530193 466.872164 
L 409.193808 467.768103 
L 410.601483 469.048017 
L 412.563696 469.304 
L 413.246204 470.669241 
L 411.71056 472.461119 
L 410.473512 474.125007 
L 405.44001 477.580773 
L 402.624661 482.444445 
L 400.961046 483.937677 
L 398.145697 480.097936 
L 395.373005 478.77536 
L 393.112195 478.476713 
L 392.131088 482.657764 
L 390.766071 485.900211 
L 383.471757 483.041738 
L 381.680172 481.548506 
L 379.16342 479.79929 
L 376.90261 479.031342 
L 375.111025 483.169729 
L 373.959291 484.406979 
L 373.148812 488.460038 
L 370.504091 492.598425 
L 367.816712 491.702486 
L 366.281067 490.5079 
L 363.892287 489.739952 
L 360.820997 490.081262 
L 357.920335 489.313314 
L 356.64063 487.436107 
L 356.51266 485.345582 
L 354.422477 485.686892 
L 352.033696 484.577634 
L 348.834436 485.601565 
L 346.317685 485.345582 
L 344.056874 484.577634 
L 341.838721 484.278988 
L 339.748537 483.596367 
L 335.525514 482.657764 
L 333.861899 482.529772 
L 331.345148 481.463177 
L 328.700426 480.993876 
L 327.59135 482.444445 
L 325.458509 482.401781 
L 323.538953 481.975143 
L 322.131279 481.121867 
L 320.723604 480.097936 
L 316.24464 479.79929 
L 315.007593 480.311255 
L 313.471949 481.335186 
L 311.083168 479.884618 
L 308.438446 479.372653 
L 307.030771 478.178066 
L 305.367156 473.869025 
L 304.087452 471.991818 
L 303.532914 469.858629 
L 302.125239 469.389327 
L 300.589595 469.730637 
L 296.409228 469.815965 
L 294.319045 467.981422 
L 292.911371 464.866966 
L 291.631667 463.885699 
L 290.65056 461.923165 
L 289.285543 460.941898 
L 284.678608 461.923165 
L 282.161857 462.179148 
L 279.218538 461.837838 
L 277.256325 461.155217 
L 275.59271 460.088622 
L 273.630497 459.661985 
L 271.796254 459.533993 
L 269.023563 459.875303 
L 266.762752 460.51526 
L 266.506811 458.894037 
L 266.762752 457.102157 
L 265.781646 452.494469 
L 266.506811 448.78272 
L 274.185035 446.094901 
L 277.128355 443.791057 
L 282.161857 437.39149 
L 283.526875 437.946119 
L 286.043626 437.519481 
L 287.024732 436.324895 
L 288.560377 435.087646 
L 290.394619 435.770266 
L 292.058234 437.092843 
L 294.574986 438.202101 
L 297.944873 440.377954 
L 299.05395 439.695334 
L 300.333654 438.714067 
L 302.25321 437.860791 
L 304.64199 437.647472 
L 306.476233 438.07411 
L 308.267819 439.140704 
L 310.102061 440.036644 
L 312.320215 440.292627 
L 314.708995 440.121972 
L 319.18796 438.714067 
L 321.150172 437.775463 
L 323.240356 436.452887 
L 328.828396 433.33843 
L 330.91858 431.589215 
L 333.733929 430.522621 
L 336.677248 430.18131 
L 339.748537 430.863931 
L 342.094662 431.930525 
L 343.630306 433.039784 
L 346.872223 433.893059 
L 348.535838 433.935723 
L 350.498051 434.234369 
L 352.033696 434.788998 
L 353.44137 435.471619 
L 355.659524 435.770266 
L 357.621737 435.2583 
L 359.58395 430.095982 
L 359.455979 428.005457 
L 357.920335 426.34157 
L 357.749707 424.379035 
L 357.323139 422.416501 
L 356.64063 421.179252 
L 355.787494 420.112657 
L 354.123879 419.046063 
L 352.332293 418.235451 
L 350.753992 416.955537 
L 348.10927 416.614227 
L 346.019087 415.718288 
L 345.165951 414.011736 
L 344.483442 411.451909 
L 342.265288 408.508108 
L 340.857614 406.332255 
L 338.895401 405.137669 
L 337.914295 403.687101 
L 336.080053 402.236532 
L 334.288467 400.060679 
L 333.435331 398.652774 
L 336.50662 390.973293 
L 338.767431 389.224078 
L 341.668093 392.381198 
L 345.165951 394.813034 
L 346.872223 396.434258 
L 348.237241 397.458188 
L 349.218347 398.994084 
L 350.924619 400.529981 
L 352.161667 402.919153 
L 353.867938 404.540377 
L 355.232956 406.118936 
L 357.195169 407.39885 
L 358.901441 409.276056 
L 360.266458 409.958677 
L 360.991624 411.23859 
L 363.337748 412.262521 
L 365.17199 413.457107 
L 366.707635 414.993003 
L 368.24328 417.040865 
" style="fill:#008000;fill-opacity:0.5;stroke:#000000;stroke-dasharray:1,1.65;stroke-dashoffset:0;stroke-opacity:0.5;"/>
    <path clip-path="url(#p1feb43813a)" d="M 524.921707 427.749475 
L 526.329382 428.090785 
L 527.737056 427.792138 
L 529.272701 428.133448 
L 531.917423 426.469561 
L 532.898529 425.146984 
L 534.178233 424.933665 
L 535.41528 424.464363 
L 536.822955 423.52576 
L 537.377493 421.435235 
L 537.377493 419.558028 
L 536.950925 418.022132 
L 536.140445 417.168856 
L 535.969819 415.63296 
L 536.396386 413.883745 
L 537.804061 413.243788 
L 538.060001 415.078331 
L 539.041108 416.187589 
L 540.448782 417.510166 
L 541.728487 417.254184 
L 542.709593 417.723485 
L 541.301918 420.112657 
L 541.557859 422.501829 
L 542.965533 422.84314 
L 544.245238 422.629821 
L 548.297634 425.701613 
L 550.515787 425.829604 
L 554.312243 427.578819 
L 555.54929 428.432095 
L 556.658367 428.218776 
L 558.066041 427.450828 
L 562.246407 430.053319 
L 564.507218 428.304104 
L 566.298804 429.072052 
L 568.261016 429.413362 
L 570.521827 431.375896 
L 571.886844 432.271835 
L 574.403596 433.125111 
L 575.555329 434.149042 
L 576.237838 435.2583 
L 576.664406 436.83686 
L 577.645512 437.946119 
L 578.07208 439.268696 
L 578.626619 440.377954 
L 579.863666 441.657868 
L 581.271341 441.57254 
L 582.252447 440.121972 
L 584.34263 439.524679 
L 586.859381 438.415421 
L 588.522996 439.524679 
L 590.911777 439.737998 
L 593.428528 438.927386 
L 595.94528 439.354023 
L 597.608895 440.121972 
L 599.14454 441.145903 
L 600.680185 441.57254 
L 602.215829 441.444549 
L 602.940995 439.396687 
L 604.60461 440.121972 
L 605.329776 439.183369 
L 606.438853 438.756731 
L 607.974498 438.62874 
L 609.211545 438.202101 
L 610.491249 437.17817 
L 612.282834 436.111576 
L 613.818479 435.556947 
L 615.226153 435.343628 
L 616.20726 433.807732 
L 616.633828 431.375896 
L 617.316337 430.266638 
L 616.079289 429.84 
L 617.060396 428.218776 
L 618.297443 428.688078 
L 619.833088 429.626681 
L 621.240762 430.821267 
L 622.904377 431.41856 
L 624.312052 431.717206 
L 625.293158 432.186508 
L 626.146294 433.039784 
L 627.681939 434.234369 
L 629.772122 433.466422 
L 631.862306 432.954456 
L 633.824518 431.205241 
L 635.360163 430.053319 
L 636.341269 429.114716 
L 637.578317 428.986724 
L 640.948204 428.133448 
L 642.611819 428.901397 
L 643.763553 427.578819 
L 644.318091 425.701613 
L 646.664215 423.86707 
L 647.943919 423.269777 
L 649.180967 422.971131 
L 650.716611 423.269777 
L 652.294913 420.453968 
L 655.366202 417.467503 
L 656.475279 418.491434 
L 660.527675 421.221916 
L 661.764723 421.861872 
L 665.26258 422.203182 
L 666.798225 420.880606 
L 668.205899 420.027329 
L 669.869514 419.216718 
L 670.466709 418.576761 
L 671.703757 419.13139 
L 672.556893 418.064796 
L 673.66597 418.363442 
L 676.182721 417.723485 
L 677.163827 417.723485 
L 678.571502 417.040865 
L 680.491058 419.344709 
L 681.216224 420.539295 
L 681.642791 421.861872 
L 683.178436 422.416501 
L 684.714081 423.52576 
L 687.6574 426.810871 
L 688.766477 428.304104 
L 689.022418 430.053319 
L 690.302122 431.162577 
L 691.965737 431.845198 
L 692.520275 433.33843 
L 693.245441 434.703671 
L 695.207654 435.642275 
L 696.316731 437.39149 
L 698.961452 439.908653 
L 699.942558 439.823325 
L 700.369127 440.719265 
L 701.350233 441.785859 
L 702.45931 442.340488 
L 706.767646 446.820186 
L 708.047351 447.844116 
L 708.900487 449.12403 
L 711.11864 451.427874 
L 712.526315 450.36128 
L 713.763362 450.105297 
L 714.616498 451.214556 
L 715.853545 451.513202 
L 716.578711 453.433072 
L 717.986386 454.371675 
L 718.796865 455.480934 
L 718.796865 456.718184 
L 719.650001 458.126088 
L 720.887048 459.320674 
L 722.294722 459.533993 
L 723.702396 458.766045 
L 727.328225 462.136484 
L 728.181361 461.368536 
L 729.972946 460.51526 
L 731.380621 461.581855 
L 732.105786 463.160414 
L 733.342834 463.501725 
L 734.025342 464.994957 
L 735.006449 465.890897 
L 735.987555 467.298802 
L 736.542094 468.40806 
L 737.39523 469.304 
L 738.930874 469.389327 
L 740.210578 469.687973 
L 741.319655 469.261336 
L 742.727329 469.048017 
L 743.836406 468.706707 
L 745.372051 470.071948 
L 746.353157 470.498585 
L 747.163636 471.266534 
L 735.433016 484.961608 
L 733.086893 487.265453 
L 731.807188 485.516237 
L 730.698112 483.63903 
L 726.773686 479.585972 
L 725.110071 478.562041 
L 722.294722 475.660903 
L 721.868154 474.082343 
L 719.095462 472.247801 
L 717.005279 471.266534 
L 715.725575 469.602646 
L 714.3179 468.152078 
L 711.971777 464.866966 
L 710.265504 463.288406 
L 708.601889 462.520458 
L 707.066245 461.368536 
L 705.65857 459.960631 
L 704.976061 458.638054 
L 702.45931 456.248882 
L 701.051636 455.566262 
L 699.814588 455.139623 
L 697.681748 455.054296 
L 696.018133 454.712985 
L 692.520275 453.262417 
L 691.112601 451.897176 
L 689.321016 451.427874 
L 685.823158 451.982503 
L 684.415484 452.409141 
L 678.827443 452.62246 
L 677.291797 453.17709 
L 675.756153 453.945038 
L 674.092538 455.139623 
L 671.405159 457.486132 
L 669.613574 458.766045 
L 668.504497 459.832639 
L 667.352763 460.003295 
L 665.433207 459.448666 
L 664.153503 460.429932 
L 662.916456 459.960631 
L 661.764723 459.235347 
L 656.901847 457.443467 
L 652.977421 457.69945 
L 650.716611 459.320674 
L 649.351594 459.61932 
L 642.611819 460.003295 
L 641.246801 460.643251 
L 639.540529 462.264475 
L 637.322376 464.013691 
L 635.061566 466.957491 
L 633.824518 467.938759 
L 632.288874 468.40806 
L 630.19869 469.389327 
L 628.108507 470.711904 
L 626.572863 472.80243 
L 625.975667 474.210335 
L 625.293158 478.135403 
L 624.184082 479.244661 
L 623.075005 479.884618 
L 621.240762 480.439247 
L 619.40652 481.463177 
L 618.297443 482.95641 
L 616.761798 484.577634 
L 616.079289 486.156194 
L 615.652722 488.0334 
L 613.690509 488.0334 
L 612.837372 487.436107 
L 611.728296 487.436107 
L 611.045787 488.417375 
L 610.619219 489.61196 
L 610.74719 491.147857 
L 609.766083 491.958469 
L 608.230439 492.897072 
L 606.993391 494.048994 
L 604.732581 494.688951 
L 603.751474 495.670217 
L 602.215829 495.883536 
L 601.106752 496.779476 
L 599.14454 497.547424 
L 597.907493 498.187381 
L 596.627789 498.059389 
L 594.964173 497.206114 
L 593.428528 496.736812 
L 591.764913 497.50476 
L 590.48521 498.699347 
L 589.248162 499.296639 
L 587.54189 499.040657 
L 586.560784 498.059389 
L 585.750304 498.870001 
L 583.361523 498.699347 
L 581.14337 497.888735 
L 580.162264 496.651485 
L 579.01053 495.798209 
L 578.328021 494.987597 
L 576.664406 494.347641 
L 573.721087 494.560959 
L 571.886844 494.347641 
L 568.133046 492.598425 
L 567.450537 493.579692 
L 566.725371 493.067727 
L 566.042863 492.043796 
L 564.763159 492.598425 
L 561.435928 491.19052 
L 560.284195 489.953271 
L 561.265301 486.156194 
L 568.005075 470.925223 
L 566.042863 470.839896 
L 564.20862 470.157275 
L 562.417035 469.304 
L 561.009361 467.853431 
L 560.284195 466.402862 
L 559.303088 465.677578 
L 558.62058 464.56832 
L 556.231799 461.581855 
L 555.250692 460.771243 
L 554.141615 459.064691 
L 552.605971 457.486132 
L 550.643758 455.950235 
L 549.406711 454.712985 
L 547.700439 457.230149 
L 539.211736 452.537132 
L 533.751665 448.910711 
L 531.490854 447.033504 
L 530.509748 446.393548 
L 530.253807 445.113634 
L 529.400671 443.791057 
L 528.291595 440.88992 
L 526.88392 439.268696 
L 526.073441 438.500748 
L 524.793737 437.988782 
L 523.556689 437.988782 
L 521.722448 437.092843 
L 519.504294 436.666205 
L 515.02533 436.410222 
L 513.916253 436.666205 
L 511.527472 435.556947 
L 509.8212 434.106378 
L 506.195372 431.845198 
L 504.958325 430.949258 
L 500.607331 428.432095 
L 499.498254 427.450828 
L 495.445858 425.488294 
L 493.483645 424.251044 
L 490.113758 422.84314 
L 488.876711 422.203182 
L 487.767634 421.008597 
L 486.23199 418.662088 
L 486.061362 416.955537 
L 485.677451 415.163659 
L 485.080256 413.414443 
L 484.269776 412.219857 
L 482.990073 411.793219 
L 479.662843 410.342651 
L 476.975464 408.166798 
L 477.700629 405.777626 
L 480.771919 400.487317 
L 479.790813 399.847361 
L 478.937677 398.866093 
L 477.402032 397.799499 
L 476.719523 397.03155 
L 480.217381 391.101284 
L 481.454428 390.759974 
L 482.435534 392.423862 
L 484.269776 393.19181 
L 485.080256 394.599715 
L 486.487931 395.794301 
L 487.042469 396.818231 
L 487.895605 397.756835 
L 489.303279 398.866093 
L 490.966894 398.951421 
L 494.166155 402.236532 
L 495.317888 402.705834 
L 497.408071 403.900419 
L 499.796852 406.076272 
L 502.313603 408.081471 
L 503.977219 409.190729 
L 504.958325 410.513306 
L 505.939431 411.451909 
L 507.901644 411.665228 
L 509.991827 413.201124 
L 511.100904 415.931606 
L 512.636549 416.742218 
L 515.02533 421.349907 
L 515.451898 423.312441 
L 516.816915 424.805674 
L 519.888205 426.170915 
L 522.021045 426.768207 
L 524.111228 426.896199 
L 524.921707 427.749475 
" style="fill:#008000;fill-opacity:0.5;stroke:#000000;stroke-dasharray:1,1.65;stroke-dashoffset:0;stroke-opacity:0.5;"/>
    <path clip-path="url(#p1feb43813a)" d="M 237.841442 520.969841 
L 238.950518 524.126961 
L 239.931624 522.036436 
L 240.230223 520.116566 
L 240.784761 517.812722 
L 252.38741 517.044773 
L 251.960843 521.737789 
L 248.889553 523.785651 
L 248.590955 525.748185 
L 249.017523 529.41727 
L 247.908447 531.806442 
L 247.609849 533.768976 
L 249.572062 536.627449 
L 249.870659 539.44326 
L 249.444091 544.605577 
L 249.145493 550.27986 
L 252.38741 548.658637 
L 255.160102 547.976016 
L 258.956558 556.295453 
L 260.492203 559.964539 
L 260.620173 563.249651 
L 260.620173 572.721011 
L 260.748144 574.726208 
L 261.302682 577.798 
L 267.18932 577.925992 
L 269.151533 574.939527 
L 270.815148 573.488958 
L 272.64939 573.531623 
L 275.59271 572.422364 
L 278.663999 575.067518 
L 280.327614 575.920794 
L 283.270934 576.134113 
L 286.598164 575.835467 
L 288.858975 577.371363 
L 288.005839 581.595077 
L 286.470194 584.666869 
L 284.678608 587.184033 
L 282.289828 586.416085 
L 280.327614 586.544076 
L 279.474478 588.762593 
L 281.308721 591.365084 
L 278.79197 591.578403 
L 280.199644 593.412945 
L 277.810863 594.180893 
L 277.938834 596.868712 
L 275.848651 596.826048 
L 276.403189 599.471203 
L 275.848651 601.988366 
L 274.313006 603.60959 
L 272.64939 608.558589 
L 270.815148 612.611648 
L 268.852935 614.275536 
L 268.170427 615.470121 
L 265.653676 619.053879 
L 263.264895 618.200603 
L 260.065634 623.533577 
L 258.402019 621.272396 
L 257.676853 617.859293 
L 256.269179 616.408725 
L 248.036417 614.574182 
L 220.52278 609.411864 
L 218.26197 607.875968 
L 216.726325 608.68658 
L 203.886628 606.254744 
L 195.483239 604.505529 
L 188.786121 603.310943 
L 161.954994 597.935306 
L 144.039138 594.564868 
L 138.451097 592.687661 
L 146.00135 583.130974 
L 154.959279 573.744941 
L 161.784367 571.995726 
L 170.059786 569.265244 
L 172.832478 568.497296 
L 176.458306 567.729348 
L 186.951879 565.212184 
L 188.786121 564.870874 
L 191.985381 564.017599 
L 194.80073 563.46297 
L 196.165748 563.334978 
L 199.834233 563.249651 
L 203.886628 562.865677 
L 207.640427 563.206987 
L 210.839687 562.780349 
L 212.545959 562.439039 
L 214.081604 561.799082 
L 216.171787 561.116461 
L 218.688538 560.476505 
L 221.631857 559.964539 
L 224.276579 560.519168 
L 224.703147 556.636764 
L 225.257686 553.607636 
L 225.257686 551.474446 
L 221.759828 550.407852 
L 220.650751 548.317326 
L 220.650751 545.928155 
L 221.887798 542.728371 
L 222.612964 539.869897 
L 221.759828 537.395398 
L 220.650751 535.944829 
L 219.669644 534.323605 
L 219.243077 532.489062 
L 220.650751 526.558797 
L 226.110822 518.580669 
L 229.011484 515.295558 
L 231.528235 514.356955 
L 234.770152 515.295558 
L 237.116276 518.452678 
L 237.841442 520.969841 
" style="fill:#008000;fill-opacity:0.5;stroke:#000000;stroke-dasharray:1,1.65;stroke-dashoffset:0;stroke-opacity:0.5;"/>
    <path clip-path="url(#p1feb43813a)" d="M 266.208214 454.414339 
L 266.762752 457.102157 
L 266.506811 458.894037 
L 266.762752 460.51526 
L 269.023563 459.875303 
L 271.796254 459.533993 
L 273.630497 459.661985 
L 275.59271 460.088622 
L 277.256325 461.155217 
L 279.218538 461.837838 
L 282.161857 462.179148 
L 284.25204 462.136484 
L 286.342223 461.496527 
L 288.005839 461.155217 
L 290.266649 461.496527 
L 291.631667 463.885699 
L 292.911371 464.866966 
L 294.319045 467.981422 
L 296.409228 469.858629 
L 300.589595 469.730637 
L 302.125239 469.389327 
L 303.532914 469.858629 
L 304.087452 471.991818 
L 305.367156 473.869025 
L 306.305606 476.386188 
L 306.732174 478.050075 
L 308.011878 479.11667 
L 307.286712 480.908548 
L 301.997269 488.545366 
L 300.888193 491.19052 
L 301.442731 492.811744 
L 303.106346 492.129123 
L 304.38605 490.5079 
L 305.367156 488.972004 
L 307.286712 489.654624 
L 309.675493 490.081262 
L 309.547522 491.74515 
L 307.030771 494.475632 
L 305.623097 497.547424 
L 309.803463 501.813802 
L 314.708995 505.824198 
L 311.509736 509.663939 
L 309.675493 510.858524 
L 308.694387 512.181102 
L 307.030771 513.63167 
L 305.495127 513.759662 
L 304.769961 515.466213 
L 304.769961 516.831454 
L 304.215423 519.007307 
L 303.788855 521.52447 
L 303.788855 524.254952 
L 301.997269 526.132159 
L 292.356832 534.963562 
L 287.749898 538.675311 
L 284.934549 538.675311 
L 281.863259 538.120682 
L 279.474478 536.158148 
L 277.256325 533.555657 
L 277.938834 531.593123 
L 276.957727 530.057227 
L 274.867544 529.374607 
L 273.3319 528.180021 
L 272.64939 526.302814 
L 271.113746 526.132159 
L 270.132639 527.4974 
L 271.540314 528.606658 
L 272.478764 530.142555 
L 271.113746 531.678451 
L 265.909616 531.038494 
L 263.563492 530.398538 
L 262.283788 530.825175 
L 260.748144 530.611856 
L 259.084528 531.251813 
L 259.340469 532.659718 
L 260.748144 532.915701 
L 261.85722 533.854304 
L 260.748144 536.926096 
L 256.141209 536.584786 
L 254.178996 533.896967 
L 251.406304 532.873037 
L 249.444091 528.606658 
L 248.590955 525.748185 
L 248.889553 523.785651 
L 251.960843 521.737789 
L 252.515381 516.703463 
L 240.784761 517.812722 
L 240.230223 520.116566 
L 239.931624 522.036436 
L 238.950518 524.126961 
L 237.713471 520.713858 
L 236.988306 518.324686 
L 237.116276 516.020842 
L 231.528235 514.356955 
L 229.310082 514.826257 
L 228.201004 515.722196 
L 225.129715 518.751324 
L 224.575177 520.84185 
L 220.650751 526.558797 
L 219.243077 532.489062 
L 219.669644 534.323605 
L 220.650751 535.944829 
L 221.759828 537.395398 
L 222.612964 539.869897 
L 221.631857 543.197673 
L 220.650751 545.928155 
L 220.650751 548.317326 
L 221.759828 550.407852 
L 225.257686 551.474446 
L 225.257686 553.607636 
L 224.959088 556.338118 
L 224.148609 557.447376 
L 221.887798 559.964539 
L 219.541674 560.263186 
L 217.408834 560.732487 
L 213.228468 562.140392 
L 210.839687 562.780349 
L 209.048101 563.036331 
L 207.341829 563.121659 
L 203.886628 562.865677 
L 199.834233 563.249651 
L 196.165748 563.334978 
L 194.80073 563.46297 
L 191.985381 564.017599 
L 188.786121 564.870874 
L 186.951879 565.212184 
L 176.458306 567.729348 
L 172.832478 568.497296 
L 170.059786 569.265244 
L 165.580822 570.80114 
L 155.940385 573.830269 
L 153.807545 573.61695 
L 156.324296 562.097729 
L 159.566213 550.493179 
L 162.765473 539.912561 
L 168.652111 518.964644 
L 171.040892 509.45062 
L 175.775797 492.598425 
L 177.86598 490.209253 
L 182.216974 485.814883 
L 184.733725 482.316454 
L 191.985381 475.40492 
L 194.374162 473.997016 
L 195.611209 471.56518 
L 198.981096 465.762906 
L 204.697107 455.054296 
L 207.512457 452.067831 
L 208.749504 456.67552 
L 220.778721 456.718184 
L 220.352154 454.414339 
L 220.52278 451.427874 
L 222.314366 448.697392 
L 225.812224 448.825384 
L 229.736649 448.014772 
L 234.898122 448.014772 
L 244.965127 451.086564 
L 247.183281 450.574598 
L 246.628742 452.62246 
L 246.628742 454.926304 
L 248.590955 455.395606 
L 251.107706 456.248882 
L 253.752428 455.822244 
L 255.586671 455.822244 
L 256.994345 453.305081 
L 256.823717 451.769185 
L 257.804824 449.46534 
L 258.956558 447.161496 
L 262.710356 442.639135 
L 265.099137 441.060575 
L 267.317291 441.017911 
L 266.506811 448.78272 
L 265.781646 452.494469 
L 266.208214 454.414339 
" style="fill:#008000;fill-opacity:0.5;stroke:#000000;stroke-dasharray:1,1.65;stroke-dashoffset:0;stroke-opacity:0.5;"/>
    <path clip-path="url(#p1feb43813a)" d="M 266.506811 301.891314 
L 270.132639 302.104633 
L 273.203929 302.104633 
L 275.422082 302.53127 
L 280.029017 305.133761 
L 283.270934 305.901709 
L 286.598164 306.029701 
L 289.541483 305.389744 
L 292.7834 305.901709 
L 295.001554 308.888174 
L 298.92598 313.453199 
L 301.869299 316.439664 
L 303.234316 318.530189 
L 305.367156 321.431326 
L 307.158742 322.967223 
L 309.547522 324.545783 
L 311.339108 325.484386 
L 312.874753 327.617575 
L 317.097776 330.006747 
L 319.870468 331.201333 
L 322.813788 331.542643 
L 325.757107 332.86522 
L 327.420722 334.145134 
L 328.273858 335.723694 
L 328.828396 337.643564 
L 329.809503 339.307452 
L 330.91858 340.715356 
L 332.880793 342.293917 
L 334.288467 342.933873 
L 335.824112 343.360511 
L 337.359756 341.909942 
L 338.767431 342.805882 
L 340.132448 344.256451 
L 341.668093 345.024399 
L 343.630306 345.664355 
L 344.91001 346.346976 
L 346.317685 347.328243 
L 348.237241 347.754881 
L 353.142773 349.162786 
L 356.64063 351.167983 
L 358.730814 350.784009 
L 360.010517 350.016061 
L 361.418192 350.22938 
L 363.764316 351.338639 
L 365.598558 352.661216 
L 367.006233 353.855802 
L 368.24328 355.30637 
L 369.778925 356.799603 
L 371.869108 358.250171 
L 373.57538 360.25537 
L 375.921504 361.961921 
L 377.627776 363.497816 
L 379.419361 364.052446 
L 380.272498 368.318824 
L 382.661278 368.660134 
L 384.751462 370.40935 
L 388.37729 371.177298 
L 390.040905 371.177298 
L 391.875147 371.731927 
L 398.145697 374.889047 
L 399.553371 375.230357 
L 401.089016 375.443676 
L 401.216986 377.40621 
L 399.553371 380.691321 
L 401.643555 381.885908 
L 404.032336 383.763114 
L 406.805028 384.403071 
L 409.193808 385.427002 
L 411.454619 386.834906 
L 414.952477 388.285475 
L 416.317494 389.266742 
L 417.2986 390.802638 
L 420.540517 394.173077 
L 421.350996 391.314603 
L 423.057268 388.370802 
L 425.147452 385.853639 
L 427.493575 386.749579 
L 431.16206 389.650716 
L 431.97254 392.167879 
L 434.361321 395.45299 
L 435.470397 400.188671 
L 436.750101 403.175136 
L 438.285746 404.24173 
L 440.802497 403.900419 
L 443.148621 405.777626 
L 444.684266 407.654832 
L 446.390538 409.489375 
L 448.054153 410.939944 
L 450.016366 412.262521 
L 450.997473 413.969072 
L 452.533117 415.974271 
L 453.642194 419.003399 
L 455.604407 421.093924 
L 457.012082 423.056459 
L 455.476436 427.322837 
L 450.869502 433.039784 
L 452.959685 434.021051 
L 454.623301 433.594413 
L 457.865217 433.33843 
L 460.211341 433.722404 
L 461.491045 435.215637 
L 462.472152 436.666205 
L 456.713484 445.96691 
L 453.940791 448.825384 
L 453.514224 447.033504 
L 451.42404 447.033504 
L 448.480721 446.180229 
L 445.537402 446.521539 
L 443.873786 447.460143 
L 442.89268 449.593332 
L 440.077332 449.550668 
L 436.451503 448.057435 
L 435.470397 445.96691 
L 433.806782 444.516341 
L 431.97254 443.961712 
L 429.754386 443.961712 
L 428.090771 442.639135 
L 424.720883 445.838919 
L 420.924428 447.460143 
L 418.834245 446.052238 
L 416.488121 445.07097 
L 411.582589 442.041842 
L 406.975654 441.359222 
L 403.051229 438.842058 
L 401.216986 438.202101 
L 399.29743 437.092843 
L 397.335218 436.623541 
L 395.799573 435.2583 
L 394.647839 434.021051 
L 392.429686 434.57568 
L 390.894041 434.447688 
L 388.803858 433.253103 
L 387.097586 430.650612 
L 385.561941 428.645414 
L 381.936113 425.786941 
L 379.84593 424.805674 
L 376.092131 421.221916 
L 373.831321 420.197985 
L 372.594273 419.344709 
L 370.077522 418.79008 
L 368.24328 417.040865 
L 366.707635 414.993003 
L 365.04402 413.457107 
L 363.337748 412.262521 
L 360.991624 411.23859 
L 360.138488 410.044005 
L 358.304245 408.6361 
L 356.64063 406.886884 
L 354.977015 405.692299 
L 353.014802 403.687101 
L 351.479157 402.492515 
L 350.924619 400.529981 
L 349.218347 398.951421 
L 348.407868 397.458188 
L 346.872223 396.434258 
L 345.165951 394.813034 
L 341.668093 392.381198 
L 338.767431 389.224078 
L 336.080053 391.015957 
L 334.715035 389.650716 
L 333.733929 387.602855 
L 331.643745 387.048225 
L 328.828396 385.768312 
L 328.145888 383.891105 
L 326.013048 383.549795 
L 323.240356 383.336476 
L 320.851575 381.587261 
L 319.742498 379.923374 
L 318.206853 379.027434 
L 313.04538 379.027434 
L 309.675493 376.211624 
L 308.139848 375.102366 
L 306.902801 375.443676 
L 303.660884 374.377081 
L 307.286712 370.281358 
L 311.083168 364.905722 
L 312.874753 362.772533 
L 313.301321 361.236636 
L 313.04538 359.914059 
L 308.694387 353.685146 
L 307.286712 352.106587 
L 306.049665 350.357371 
L 308.694387 348.181518 
L 310.955197 347.626889 
L 309.120955 345.195053 
L 307.58531 343.488502 
L 306.476233 342.592563 
L 305.495127 340.715356 
L 303.959482 339.094133 
L 301.869299 338.027538 
L 300.163027 336.448978 
L 298.371441 334.571771 
L 297.219707 332.737229 
L 295.428122 331.116005 
L 293.465909 330.646704 
L 289.541483 328.598842 
L 287.877868 327.233601 
L 286.214253 326.252334 
L 283.697502 325.527049 
L 280.199644 323.564515 
L 278.493372 321.218008 
L 277.256325 318.914163 
L 275.976621 317.634249 
L 274.185035 316.567655 
L 272.905331 314.903767 
L 270.687178 313.922501 
L 267.317291 314.775776 
L 265.355078 316.951629 
L 263.691462 317.420931 
L 261.85722 317.634249 
L 259.511096 318.188879 
L 257.676853 317.292939 
L 255.714641 316.780974 
L 253.923055 317.292939 
L 253.624458 312.727914 
L 253.624458 297.240961 
L 255.4587 298.392883 
L 258.956558 299.886115 
L 263.392865 301.422012 
L 266.506811 301.891314 
" style="fill:#008000;fill-opacity:0.5;stroke:#000000;stroke-dasharray:1,1.65;stroke-dashoffset:0;stroke-opacity:0.5;"/>
    <path clip-path="url(#p1feb43813a)" d="M 275.166142 239.900837 
L 276.957727 242.204681 
L 278.663999 243.484594 
L 279.901047 244.807172 
L 280.882153 246.471059 
L 283.526875 249.500188 
L 284.806579 251.718704 
L 286.214253 252.358661 
L 287.579271 253.595911 
L 289.285543 254.107876 
L 292.058234 258.715565 
L 294.148418 261.232728 
L 295.85469 263.664564 
L 297.219707 266.053736 
L 298.200814 268.229588 
L 301.570701 270.96007 
L 302.978375 272.495967 
L 305.751068 272.965269 
L 307.883907 273.861208 
L 308.992984 275.226449 
L 312.874753 277.743612 
L 314.453055 279.834138 
L 315.562131 281.711344 
L 316.11667 283.80187 
L 311.211138 285.252438 
L 309.547522 284.313835 
L 305.921695 282.607283 
L 301.698672 282.137982 
L 298.627382 282.479292 
L 298.371441 284.48449 
L 296.963766 286.447024 
L 299.480518 288.409558 
L 301.144133 290.030782 
L 300.461624 291.481351 
L 300.333654 292.974583 
L 297.646276 292.803927 
L 296.281258 291.566678 
L 295.556092 290.030782 
L 294.447015 288.537549 
L 292.7834 287.214972 
L 291.375726 285.337766 
L 289.712111 284.14318 
L 286.214253 283.332568 
L 284.38001 282.180646 
L 282.545769 280.730077 
L 279.645106 280.388767 
L 276.701786 280.303439 
L 272.905331 278.554224 
L 270.687178 277.658285 
L 268.298397 277.231646 
L 267.06135 276.25038 
L 265.355078 275.695751 
L 263.392865 274.373173 
L 261.174711 272.495967 
L 258.785931 271.216053 
L 256.994345 272.111993 
L 255.032132 271.941338 
L 254.051026 273.519898 
L 253.624458 300.227426 
L 253.624458 312.727914 
L 253.19789 317.719577 
L 255.714641 316.780974 
L 257.676853 317.292939 
L 258.785931 318.274207 
L 263.691462 317.420931 
L 265.355078 316.951629 
L 267.317291 314.775776 
L 270.687178 313.922501 
L 272.905331 314.903767 
L 274.185035 316.567655 
L 275.848651 317.634249 
L 277.256325 318.914163 
L 278.493372 321.218008 
L 280.199644 323.564515 
L 283.697502 325.527049 
L 286.214253 326.252334 
L 287.877868 327.233601 
L 289.541483 328.598842 
L 293.465909 330.646704 
L 295.428122 331.116005 
L 297.219707 332.737229 
L 298.371441 334.571771 
L 300.163027 336.448978 
L 301.869299 338.027538 
L 303.959482 339.094133 
L 305.495127 340.715356 
L 306.732174 342.805882 
L 308.822357 344.683088 
L 309.974091 346.432303 
L 308.694387 348.181518 
L 306.049665 350.357371 
L 307.286712 352.106587 
L 308.694387 353.685146 
L 313.04538 359.914059 
L 313.301321 361.236636 
L 312.064274 362.303231 
L 311.083168 364.905722 
L 307.286712 370.281358 
L 303.532914 374.462409 
L 306.902801 375.443676 
L 308.139848 375.102366 
L 309.675493 376.211624 
L 313.04538 379.027434 
L 315.818072 379.070097 
L 319.31593 379.411408 
L 321.022202 381.544597 
L 323.538953 383.677786 
L 326.183675 383.549795 
L 328.273858 384.829709 
L 329.681532 386.152285 
L 334.288467 388.157484 
L 334.970976 390.631983 
L 333.435331 398.652774 
L 334.288467 400.060679 
L 336.080053 402.236532 
L 337.914295 403.687101 
L 338.767431 405.137669 
L 340.857614 406.332255 
L 342.265288 408.508108 
L 344.483442 411.451909 
L 345.165951 414.011736 
L 346.019087 415.718288 
L 348.10927 416.614227 
L 350.753992 416.955537 
L 352.332293 418.278115 
L 354.123879 419.046063 
L 355.787494 420.112657 
L 356.64063 421.179252 
L 357.621737 423.312441 
L 357.323139 426.042923 
L 359.157381 427.3655 
L 359.71192 429.200043 
L 359.029411 431.717206 
L 357.067199 435.556947 
L 355.659524 435.770266 
L 353.44137 435.471619 
L 351.735098 434.703671 
L 348.962406 434.021051 
L 346.872223 433.893059 
L 343.374365 432.954456 
L 341.966691 431.845198 
L 340.303076 431.290569 
L 338.895401 430.266638 
L 337.487727 429.456026 
L 334.843005 430.394629 
L 331.899686 430.73594 
L 330.492012 432.357163 
L 323.240356 436.452887 
L 321.576741 436.964851 
L 319.742498 438.543412 
L 314.708995 440.121972 
L 312.490842 440.164635 
L 309.974091 439.951316 
L 306.476233 438.07411 
L 304.769961 437.604809 
L 301.997269 438.07411 
L 299.608488 439.140704 
L 297.944873 440.377954 
L 296.110631 439.268696 
L 294.447015 437.988782 
L 291.802294 437.092843 
L 290.394619 435.770266 
L 288.560377 435.087646 
L 287.024732 436.324895 
L 286.043626 437.519481 
L 283.526875 437.946119 
L 282.161857 437.39149 
L 274.185035 446.094901 
L 266.634782 447.374815 
L 267.06135 444.772324 
L 266.336184 440.88992 
L 263.691462 441.700532 
L 262.155818 443.108437 
L 258.956558 447.161496 
L 257.804824 449.46534 
L 256.823717 451.769185 
L 256.994345 453.305081 
L 255.586671 455.822244 
L 253.752428 455.822244 
L 251.107706 456.248882 
L 248.590955 455.267614 
L 246.628742 454.926304 
L 246.202174 453.049098 
L 247.481878 451.854512 
L 247.353908 450.574598 
L 244.965127 451.086564 
L 241.46727 449.80665 
L 239.633027 449.46534 
L 234.898122 448.014772 
L 230.419159 447.374815 
L 228.883514 448.142763 
L 225.812224 448.825384 
L 222.314366 448.697392 
L 220.52278 451.427874 
L 220.352154 454.414339 
L 220.778721 456.718184 
L 208.749504 456.035563 
L 208.194965 451.641193 
L 208.066995 447.076168 
L 207.640427 441.145903 
L 207.341829 439.183369 
L 206.787291 437.39149 
L 205.806184 435.002318 
L 206.104782 431.375896 
L 207.939024 427.3655 
L 208.194965 421.861872 
L 209.73061 414.993003 
L 210.711716 412.646495 
L 210.711716 409.830685 
L 211.436882 406.204264 
L 211.820793 402.620506 
L 213.100497 400.316662 
L 211.820793 399.079412 
L 211.820793 394.045085 
L 209.304042 394.173077 
L 207.341829 392.935827 
L 206.104782 390.418664 
L 205.422273 389.352069 
L 204.995705 387.816173 
L 205.678214 380.051365 
L 204.697107 378.174158 
L 203.886628 375.870314 
L 200.94331 369.982712 
L 200.388771 368.190833 
L 198.682499 366.654937 
L 195.781837 365.503015 
L 192.53992 366.35629 
L 189.34066 363.753799 
L 187.378447 361.663274 
L 190.023169 359.786068 
L 193.094458 357.908861 
L 195.056671 356.842267 
L 193.094458 355.178379 
L 191.004275 354.28244 
L 188.359554 354.069121 
L 186.098743 353.301173 
L 182.216974 353.002526 
L 182.771512 348.736147 
L 190.577707 343.91514 
L 193.947594 342.165925 
L 193.094458 340.928676 
L 191.302872 340.544701 
L 189.767228 339.947408 
L 188.487524 339.17946 
L 190.023169 337.003607 
L 191.686784 335.68103 
L 194.80073 333.718496 
L 196.165748 332.737229 
L 199.109067 330.433384 
L 200.772682 329.324126 
L 202.905522 328.598842 
L 204.867735 327.404256 
L 206.957918 326.422989 
L 207.768398 324.844429 
L 208.920131 323.863162 
L 209.176072 321.900628 
L 210.455775 318.956827 
L 212.8019 314.434466 
L 213.356438 312.727914 
L 214.081604 311.362673 
L 215.06271 310.08276 
L 214.764112 308.120226 
L 210.455775 301.891314 
L 208.194965 298.990176 
L 206.40338 284.911128 
L 211.436882 284.697809 
L 216.427728 285.209775 
L 218.134 285.679076 
L 220.224183 285.977722 
L 223.423443 286.105714 
L 227.347868 286.447024 
L 229.736649 286.40436 
L 229.566022 284.100516 
L 235.026092 278.85287 
L 237.116276 277.103655 
L 239.505057 274.287846 
L 263.563492 251.932023 
L 265.099137 249.41486 
L 262.027847 247.964291 
L 260.193605 247.665645 
L 258.103422 246.897697 
L 256.269179 245.91643 
L 254.051026 245.703111 
L 251.832872 246.044421 
L 249.870659 247.025688 
L 248.036417 246.428395 
L 246.202174 245.660447 
L 249.145493 242.418 
L 251.662245 240.028828 
L 253.19789 241.095422 
L 255.288073 242.162017 
L 257.676853 241.948698 
L 260.193605 239.132888 
L 262.283788 237.383673 
L 264.11803 236.146423 
L 265.781646 236.829044 
L 271.369687 238.236949 
L 273.45987 239.004897 
L 275.166142 239.900837 
" style="fill:#008000;fill-opacity:0.5;stroke:#000000;stroke-dasharray:1,1.65;stroke-dashoffset:0;stroke-opacity:0.5;"/>
    <path clip-path="url(#p1feb43813a)" d="M 486.061362 416.955537 
L 486.487931 419.003399 
L 487.767634 421.008597 
L 489.431249 422.501829 
L 493.483645 424.251044 
L 495.445858 425.488294 
L 499.924822 427.792138 
L 502.697519 429.626683 
L 505.214265 431.07725 
L 507.176478 432.485154 
L 509.565259 433.893059 
L 511.527472 435.556947 
L 513.489684 436.452887 
L 515.02533 436.410222 
L 519.504294 436.666205 
L 521.722448 437.092843 
L 526.457352 438.842058 
L 528.590192 441.487213 
L 530.936316 446.820186 
L 533.751665 448.910711 
L 539.211736 452.537132 
L 547.700439 457.230149 
L 549.406711 454.712985 
L 550.643758 455.950235 
L 552.605971 457.486132 
L 554.141615 459.064691 
L 558.62058 464.56832 
L 561.009361 467.853431 
L 562.417035 469.304 
L 564.20862 470.157275 
L 566.042863 470.839896 
L 567.706478 471.010551 
L 566.042863 475.319593 
L 561.265301 486.156194 
L 561.009361 490.635891 
L 562.971573 491.915805 
L 565.488324 492.299779 
L 567.450537 493.153054 
L 570.095259 493.494364 
L 572.739981 494.432968 
L 575.81127 494.432968 
L 578.328021 494.987597 
L 580.844772 497.547424 
L 583.361523 498.699347 
L 586.176873 498.528691 
L 587.54189 499.040657 
L 589.8027 499.040657 
L 591.764913 497.50476 
L 593.428528 496.736812 
L 594.964173 497.206114 
L 596.926386 498.059389 
L 599.14454 497.547424 
L 601.106752 496.779476 
L 602.215829 495.883536 
L 604.050072 495.414235 
L 606.993391 494.048994 
L 608.230439 492.897072 
L 610.320621 491.489167 
L 610.619219 489.61196 
L 611.472355 487.777418 
L 613.434568 487.777418 
L 615.652722 488.118728 
L 617.316337 489.739952 
L 618.169473 491.403839 
L 618.59604 493.153054 
L 619.150579 494.603623 
L 620.387626 495.414235 
L 621.368733 498.059389 
L 623.075005 498.74201 
L 624.184082 501.259173 
L 623.075005 503.008388 
L 622.093898 505.39756 
L 623.075005 507.701405 
L 623.075005 509.237301 
L 620.558254 512.94905 
L 620.003715 514.356955 
L 620.387626 516.490144 
L 621.240762 518.196695 
L 621.112792 520.329885 
L 620.259656 521.823117 
L 619.022609 522.932375 
L 617.188366 524.212289 
L 615.226153 526.004168 
L 613.989107 528.180021 
L 612.837372 529.843908 
L 612.282834 531.721114 
L 610.917816 533.640985 
L 610.06468 535.518191 
L 609.382172 536.627449 
L 607.846527 538.120682 
L 605.884314 539.78457 
L 603.751474 540.040552 
L 602.642397 541.02182 
L 602.642397 543.410991 
L 601.27738 544.733568 
L 599.699078 544.178939 
L 598.035463 544.093612 
L 595.94528 544.946887 
L 593.727126 545.245534 
L 592.020854 544.050948 
L 589.8027 543.325664 
L 588.267055 545.288198 
L 587.157979 547.208068 
L 585.025139 547.464051 
L 582.252447 543.283 
L 579.309128 542.003086 
L 576.792376 543.155008 
L 574.403596 539.571251 
L 573.166548 538.291338 
L 571.630903 536.200812 
L 570.777767 534.323605 
L 569.242123 534.622252 
L 567.450537 534.408933 
L 565.317697 534.067623 
L 563.355484 533.299674 
L 561.265301 531.465132 
L 559.601686 529.161288 
L 558.62058 527.540064 
L 557.084935 526.302814 
L 555.421319 525.321547 
L 553.160509 523.785651 
L 549.662651 523.017703 
L 546.591362 523.273686 
L 544.629149 523.060367 
L 542.837563 522.505738 
L 542.112398 523.99897 
L 539.894244 524.254952 
L 538.230629 525.534866 
L 536.950925 524.468271 
L 533.026499 524.212289 
L 531.234913 524.894909 
L 527.054547 526.857444 
L 525.220305 526.516133 
L 523.258092 526.644124 
L 520.613371 526.345478 
L 515.707839 526.900107 
L 513.916253 526.985435 
L 512.209981 527.753383 
L 509.69323 528.180021 
L 507.603046 527.412073 
L 504.830355 527.070762 
L 502.569544 525.91884 
L 500.35139 525.790849 
L 498.517148 525.150892 
L 494.76335 522.591065 
L 491.094864 520.713858 
L 489.431249 519.433945 
L 489.175308 516.703463 
L 488.023575 514.698265 
L 485.677451 513.844989 
L 484.141806 512.778395 
L 482.606161 511.242498 
L 479.662843 510.986516 
L 478.127197 509.45062 
L 475.610446 509.877257 
L 473.349635 509.322628 
L 471.68602 508.725335 
L 469.723808 507.829396 
L 468.614731 506.378827 
L 469.723808 504.757604 
L 471.387423 500.405898 
L 467.633625 497.718079 
L 465.543441 496.779476 
L 464.263737 498.614019 
L 463.453258 500.832535 
L 461.746986 500.277906 
L 459.528833 498.400699 
L 458.419756 495.58489 
L 457.140052 494.00633 
L 456.030975 492.385106 
L 455.604407 490.721219 
L 454.751271 488.673357 
L 453.642194 486.497504 
L 451.253414 483.980341 
L 449.461828 482.6151 
L 446.817106 482.188462 
L 444.982864 481.292523 
L 442.89268 481.207195 
L 441.058438 479.927282 
L 439.821391 477.495446 
L 437.43261 476.30086 
L 436.323533 475.06361 
L 434.361321 474.082343 
L 432.143167 474.338326 
L 430.735492 475.319593 
L 428.645309 474.850291 
L 424.720883 474.764964 
L 422.332103 473.229067 
L 420.24192 473.442386 
L 415.507015 473.527714 
L 412.563696 469.304 
L 410.601483 469.048017 
L 409.918974 467.981422 
L 408.212702 467.213474 
L 409.620376 464.227009 
L 413.97137 457.912769 
L 415.080447 457.35814 
L 416.189523 456.547528 
L 420.36989 449.891978 
L 421.095055 448.910711 
L 422.630701 448.910711 
L 424.720883 445.838919 
L 429.327818 443.748393 
L 431.29003 444.345686 
L 433.508185 444.431014 
L 435.470397 445.96691 
L 436.451503 448.057435 
L 440.077332 449.550668 
L 442.89268 449.593332 
L 443.873786 447.460143 
L 445.537402 446.521539 
L 447.499615 446.094901 
L 450.144336 446.521539 
L 452.959685 447.460143 
L 453.940791 448.78272 
L 456.713484 445.96691 
L 459.528833 441.444549 
L 462.045584 436.196904 
L 460.339312 433.935723 
L 457.56662 433.33843 
L 454.623301 433.594413 
L 452.405147 434.021051 
L 455.476436 427.322837 
L 458.974294 424.037725 
L 459.528833 420.880606 
L 461.320418 417.936805 
L 464.434365 414.011736 
L 465.799382 414.993003 
L 467.761595 416.187589 
L 469.29724 417.808813 
L 472.240559 414.523701 
L 473.776204 412.13453 
L 476.847493 408.209462 
L 479.662843 410.342651 
L 484.269776 412.219857 
L 485.080256 413.414443 
L 485.677451 415.163659 
L 486.061362 416.955537 
" style="fill:#008000;fill-opacity:0.5;stroke:#000000;stroke-dasharray:1,1.65;stroke-dashoffset:0;stroke-opacity:0.5;"/>
    <path clip-path="url(#p1feb43813a)" d="M 415.507015 473.527714 
L 417.17063 474.125007 
L 418.407677 472.887757 
L 420.24192 473.442386 
L 422.332103 473.229067 
L 424.038375 474.125007 
L 424.976824 475.106274 
L 428.090771 474.7223 
L 429.327818 475.06361 
L 430.308924 475.660903 
L 432.143167 474.338326 
L 434.062723 473.997016 
L 435.214457 474.295662 
L 436.323533 475.06361 
L 437.43261 476.30086 
L 439.096225 477.068808 
L 440.077332 477.794092 
L 441.229065 480.311255 
L 442.466112 481.121867 
L 443.447219 481.335186 
L 444.982864 481.292523 
L 446.390538 481.889816 
L 447.371644 482.529772 
L 449.461828 482.6151 
L 450.570904 483.724359 
L 451.978579 484.364315 
L 452.959685 485.814883 
L 454.196732 487.00947 
L 454.49533 488.246719 
L 455.604407 490.721219 
L 456.030975 492.385106 
L 457.140052 494.00633 
L 458.249128 495.200916 
L 458.547726 496.352838 
L 459.400862 497.50476 
L 459.528833 499.040657 
L 461.192448 499.808605 
L 462.045584 500.704544 
L 463.453258 500.832535 
L 464.263737 498.614019 
L 465.543441 496.779476 
L 467.633625 497.718079 
L 472.112589 500.917863 
L 468.614731 506.378827 
L 469.169269 507.616077 
L 471.68602 508.725335 
L 473.349635 509.322628 
L 475.610446 509.877257 
L 477.146091 509.322628 
L 478.681736 509.493283 
L 479.662843 510.986516 
L 481.880996 511.114507 
L 483.1607 511.455817 
L 484.141806 512.778395 
L 485.677451 513.844989 
L 488.023575 514.698265 
L 489.55922 517.471411 
L 489.175308 518.793988 
L 489.55922 519.94591 
L 492.630509 521.481807 
L 494.166155 522.036436 
L 495.317888 523.231021 
L 497.109473 524.212289 
L 499.626225 525.91884 
L 500.905928 525.662857 
L 502.569544 525.91884 
L 504.105189 527.070762 
L 505.640834 527.113426 
L 507.048508 527.540064 
L 508.157585 527.412073 
L 509.69323 528.393339 
L 511.399502 527.668055 
L 512.764519 527.881374 
L 513.916253 526.985435 
L 517.542081 526.772115 
L 518.523187 526.516133 
L 520.314773 526.345478 
L 521.722448 526.430805 
L 522.831524 526.985435 
L 523.81263 526.430805 
L 525.220305 526.516133 
L 526.62798 527.198754 
L 527.609086 526.345478 
L 529.144731 525.748185 
L 530.253807 525.662857 
L 531.234913 524.894909 
L 532.642588 524.212289 
L 534.988712 524.382944 
L 536.524357 524.34028 
L 537.505463 524.894909 
L 538.230629 525.534866 
L 540.320812 523.99897 
L 542.112398 523.99897 
L 542.837563 522.505738 
L 544.245238 522.463074 
L 544.799776 523.273686 
L 548.980142 523.145694 
L 550.21719 523.231021 
L 551.496894 523.017703 
L 552.904568 523.359013 
L 553.715048 524.254952 
L 555.122722 525.321547 
L 556.231799 525.534866 
L 557.383532 526.644124 
L 558.62058 527.540064 
L 560.710762 531.166485 
L 562.545005 532.23308 
L 563.654082 533.555657 
L 565.317697 534.067623 
L 569.242123 534.622252 
L 570.777767 534.323605 
L 571.630903 535.603519 
L 571.630903 536.96876 
L 572.61201 537.950027 
L 573.593117 538.589984 
L 574.403596 539.571251 
L 575.128761 540.893828 
L 576.792376 543.155008 
L 579.437098 541.747104 
L 580.972743 542.387061 
L 582.679015 543.62431 
L 583.788092 545.714836 
L 585.025139 547.464051 
L 587.157979 547.208068 
L 589.376132 543.62431 
L 590.229269 543.155008 
L 592.020854 544.050948 
L 593.727126 545.245534 
L 596.499818 544.818896 
L 598.035463 544.093612 
L 599.699078 544.178939 
L 601.27738 544.733568 
L 602.642397 543.752302 
L 603.751474 545.458853 
L 604.903208 548.104007 
L 602.514427 548.957283 
L 601.27738 549.853223 
L 600.850811 551.303791 
L 602.514427 552.711696 
L 602.087859 555.57017 
L 602.087859 557.874014 
L 601.27738 559.836548 
L 599.699078 561.799082 
L 598.33406 562.140392 
L 592.87399 562.22572 
L 591.594286 562.993668 
L 590.911777 564.742883 
L 589.248162 566.833408 
L 587.712517 567.686684 
L 586.006245 567.900003 
L 581.697908 567.30271 
L 580.290234 568.454632 
L 578.75459 568.497296 
L 576.664406 570.80114 
L 576.792376 572.550355 
L 576.792376 576.902061 
L 574.958134 578.01132 
L 572.867951 577.542018 
L 571.204336 576.987389 
L 570.095259 577.371363 
L 569.796661 578.864595 
L 570.521827 583.045646 
L 570.521827 584.666869 
L 570.095259 585.776128 
L 568.261016 586.202766 
L 565.744265 586.24543 
L 564.763159 587.184033 
L 559.175118 582.576345 
L 554.440213 578.309966 
L 560.028254 575.366165 
L 555.421319 567.516029 
L 549.833279 570.11852 
L 544.629149 560.689824 
L 542.410995 556.423445 
L 536.822955 548.146671 
L 534.434174 550.066542 
L 533.197127 550.066542 
L 531.661482 548.871955 
L 527.737056 550.066542 
L 526.62798 551.047808 
L 524.111228 551.261127 
L 520.314773 552.925015 
L 519.504294 553.820954 
L 517.243483 555.143531 
L 516.560975 556.466109 
L 515.02533 558.513971 
L 513.745625 558.855281 
L 512.209981 559.708556 
L 509.991827 560.732487 
L 508.712123 562.780349 
L 506.920537 562.90834 
L 504.105189 564.316245 
L 502.996112 565.38284 
L 502.569544 566.9614 
L 502.569544 568.454632 
L 501.588438 569.265244 
L 499.924822 569.137253 
L 498.09058 569.435899 
L 495.872426 569.265244 
L 494.038184 568.369305 
L 490.113758 566.705417 
L 489.729847 565.553495 
L 487.597007 561.799082 
L 484.696345 560.689824 
L 482.990073 560.476505 
L 481.454428 560.903142 
L 478.681736 561.372444 
L 476.847493 562.22572 
L 475.311849 562.695021 
L 472.667127 564.188253 
L 468.486761 564.230918 
L 466.22595 563.46297 
L 464.818276 563.889607 
L 463.709199 564.614892 
L 462.301525 563.676289 
L 460.211341 562.865677 
L 458.547726 563.036331 
L 456.585513 562.268383 
L 449.888396 559.196591 
L 447.201017 559.196591 
L 445.836 559.623229 
L 442.594083 557.532704 
L 440.930468 556.764755 
L 438.840284 556.082135 
L 437.43261 554.588902 
L 436.579474 553.906282 
L 435.470397 553.266325 
L 434.23335 552.285058 
L 433.252244 550.066542 
L 433.934752 547.805361 
L 441.911574 539.144613 
L 451.42404 529.161288 
L 453.215626 526.729452 
L 450.144336 524.468271 
L 445.537402 522.377746 
L 444.129727 522.292419 
L 442.76471 522.377746 
L 441.612976 521.481807 
L 440.802497 520.201893 
L 439.522794 519.988575 
L 438.285746 519.220626 
L 437.731208 517.812722 
L 435.043829 517.215428 
L 431.97254 517.130101 
L 430.010327 517.258092 
L 428.090771 517.215428 
L 425.574019 516.362152 
L 424.038375 516.703463 
L 422.332103 516.703463 
L 419.388784 514.399619 
L 415.890926 514.740929 
L 414.09934 514.271627 
L 412.563696 513.375688 
L 412.691666 510.559878 
L 414.09934 508.384025 
L 415.890926 504.842931 
L 419.260813 499.851269 
L 417.469228 497.974062 
L 419.687381 493.921002 
L 418.578304 492.811744 
L 416.872033 492.257115 
L 418.279707 487.564099 
L 416.488121 486.028203 
L 415.336387 486.881478 
L 413.672772 486.881478 
L 410.90008 486.241522 
L 408.937868 485.174927 
L 407.103625 484.961608 
L 405.994548 485.174927 
L 404.885472 484.705625 
L 403.904365 484.918944 
L 402.36872 484.961608 
L 401.387614 484.492307 
L 404.288276 479.671299 
L 405.866578 477.239463 
L 406.805028 476.087541 
L 407.956761 476.428851 
L 410.473512 474.125007 
L 411.71056 472.461119 
L 413.544802 471.010551 
L 415.507015 473.527714 
" style="fill:#008000;fill-opacity:0.5;stroke:#000000;stroke-dasharray:1,1.65;stroke-dashoffset:0;stroke-opacity:0.5;"/>
    <path clip-path="url(#p1feb43813a)" d="M 408.937868 485.174927 
L 410.90008 486.241522 
L 413.672772 486.881478 
L 415.762956 486.497504 
L 418.279707 487.564099 
L 416.872033 492.257115 
L 418.578304 492.811744 
L 419.687381 493.921002 
L 417.469228 497.974062 
L 419.260813 499.851269 
L 418.151736 501.387164 
L 416.488121 504.074983 
L 414.09934 508.384025 
L 412.691666 510.559878 
L 412.265098 513.29036 
L 414.09934 514.271627 
L 415.890926 514.740929 
L 417.725168 514.698265 
L 419.388784 514.399619 
L 421.649594 516.234161 
L 421.777565 517.898049 
L 419.943322 521.481807 
L 419.132843 522.804384 
L 415.762956 526.132159 
L 416.872033 527.966702 
L 418.407677 531.166485 
L 420.668487 533.896967 
L 420.36989 535.646183 
L 422.630701 539.016621 
L 420.796458 539.144613 
L 419.004872 539.699242 
L 416.872033 539.571251 
L 414.525908 540.979155 
L 412.009157 541.405793 
L 407.402223 541.533784 
L 404.288276 541.107147 
L 402.496691 540.211208 
L 399.851969 538.589984 
L 398.145697 537.395398 
L 396.610052 541.960423 
L 395.927543 544.733568 
L 395.074407 546.013482 
L 393.410792 545.288198 
L 390.339502 545.928155 
L 388.931828 550.066542 
L 388.50526 553.266325 
L 376.77464 550.407852 
L 377.755746 554.460911 
L 353.014802 540.808501 
L 356.7686 534.451596 
L 354.849044 533.555657 
L 347.85333 529.630589 
L 346.019087 528.73465 
L 345.165951 525.57753 
L 342.947798 524.382944 
L 340.857614 521.951108 
L 338.895401 520.073902 
L 337.061159 518.793988 
L 333.17939 517.983376 
L 331.771716 517.471411 
L 340.431046 510.13324 
L 344.355472 508.042715 
L 347.000194 506.805465 
L 348.237241 505.098914 
L 352.886832 502.325768 
L 354.251849 500.917863 
L 352.588234 498.827338 
L 353.014802 496.352838 
L 353.995908 493.793011 
L 355.403583 489.441306 
L 356.7686 488.0334 
L 358.304245 489.61196 
L 360.820997 490.081262 
L 364.190884 489.867943 
L 369.522984 492.513098 
L 372.039735 492.598425 
L 373.148812 488.460038 
L 374.812428 484.705625 
L 375.111025 483.169729 
L 376.90261 479.031342 
L 379.16342 479.79929 
L 381.680172 481.548506 
L 383.471757 483.041738 
L 390.766071 485.900211 
L 392.131088 482.657764 
L 394.647839 478.391385 
L 395.927543 478.903351 
L 398.700235 480.524575 
L 399.425401 481.761825 
L 401.643555 484.620298 
L 404.160306 484.918944 
L 408.937868 485.174927 
" style="fill:#008000;fill-opacity:0.5;stroke:#000000;stroke-dasharray:1,1.65;stroke-dashoffset:0;stroke-opacity:0.5;"/>
   </g>
   <g id="text_1">
    <!-- Gatundu North -->
    <g style="fill:#ffffff;" transform="translate(358.223194 353.300333)scale(0.08 -0.08)">
     <defs>
      <path d="M 3809 666 
L 3809 1919 
L 2778 1919 
L 2778 2438 
L 4434 2438 
L 4434 434 
Q 4069 175 3628 42 
Q 3188 -91 2688 -91 
Q 1594 -91 976 548 
Q 359 1188 359 2328 
Q 359 3472 976 4111 
Q 1594 4750 2688 4750 
Q 3144 4750 3555 4637 
Q 3966 4525 4313 4306 
L 4313 3634 
Q 3963 3931 3569 4081 
Q 3175 4231 2741 4231 
Q 1884 4231 1454 3753 
Q 1025 3275 1025 2328 
Q 1025 1384 1454 906 
Q 1884 428 2741 428 
Q 3075 428 3337 486 
Q 3600 544 3809 666 
z
" id="DejaVuSans-47" transform="scale(0.015625)"/>
      <path d="M 2194 1759 
Q 1497 1759 1228 1600 
Q 959 1441 959 1056 
Q 959 750 1161 570 
Q 1363 391 1709 391 
Q 2188 391 2477 730 
Q 2766 1069 2766 1631 
L 2766 1759 
L 2194 1759 
z
M 3341 1997 
L 3341 0 
L 2766 0 
L 2766 531 
Q 2569 213 2275 61 
Q 1981 -91 1556 -91 
Q 1019 -91 701 211 
Q 384 513 384 1019 
Q 384 1609 779 1909 
Q 1175 2209 1959 2209 
L 2766 2209 
L 2766 2266 
Q 2766 2663 2505 2880 
Q 2244 3097 1772 3097 
Q 1472 3097 1187 3025 
Q 903 2953 641 2809 
L 641 3341 
Q 956 3463 1253 3523 
Q 1550 3584 1831 3584 
Q 2591 3584 2966 3190 
Q 3341 2797 3341 1997 
z
" id="DejaVuSans-61" transform="scale(0.015625)"/>
      <path d="M 1172 4494 
L 1172 3500 
L 2356 3500 
L 2356 3053 
L 1172 3053 
L 1172 1153 
Q 1172 725 1289 603 
Q 1406 481 1766 481 
L 2356 481 
L 2356 0 
L 1766 0 
Q 1100 0 847 248 
Q 594 497 594 1153 
L 594 3053 
L 172 3053 
L 172 3500 
L 594 3500 
L 594 4494 
L 1172 4494 
z
" id="DejaVuSans-74" transform="scale(0.015625)"/>
      <path d="M 544 1381 
L 544 3500 
L 1119 3500 
L 1119 1403 
Q 1119 906 1312 657 
Q 1506 409 1894 409 
Q 2359 409 2629 706 
Q 2900 1003 2900 1516 
L 2900 3500 
L 3475 3500 
L 3475 0 
L 2900 0 
L 2900 538 
Q 2691 219 2414 64 
Q 2138 -91 1772 -91 
Q 1169 -91 856 284 
Q 544 659 544 1381 
z
M 1991 3584 
L 1991 3584 
z
" id="DejaVuSans-75" transform="scale(0.015625)"/>
      <path d="M 3513 2113 
L 3513 0 
L 2938 0 
L 2938 2094 
Q 2938 2591 2744 2837 
Q 2550 3084 2163 3084 
Q 1697 3084 1428 2787 
Q 1159 2491 1159 1978 
L 1159 0 
L 581 0 
L 581 3500 
L 1159 3500 
L 1159 2956 
Q 1366 3272 1645 3428 
Q 1925 3584 2291 3584 
Q 2894 3584 3203 3211 
Q 3513 2838 3513 2113 
z
" id="DejaVuSans-6e" transform="scale(0.015625)"/>
      <path d="M 2906 2969 
L 2906 4863 
L 3481 4863 
L 3481 0 
L 2906 0 
L 2906 525 
Q 2725 213 2448 61 
Q 2172 -91 1784 -91 
Q 1150 -91 751 415 
Q 353 922 353 1747 
Q 353 2572 751 3078 
Q 1150 3584 1784 3584 
Q 2172 3584 2448 3432 
Q 2725 3281 2906 2969 
z
M 947 1747 
Q 947 1113 1208 752 
Q 1469 391 1925 391 
Q 2381 391 2643 752 
Q 2906 1113 2906 1747 
Q 2906 2381 2643 2742 
Q 2381 3103 1925 3103 
Q 1469 3103 1208 2742 
Q 947 2381 947 1747 
z
" id="DejaVuSans-64" transform="scale(0.015625)"/>
      <path id="DejaVuSans-20" transform="scale(0.015625)"/>
      <path d="M 628 4666 
L 1478 4666 
L 3547 763 
L 3547 4666 
L 4159 4666 
L 4159 0 
L 3309 0 
L 1241 3903 
L 1241 0 
L 628 0 
L 628 4666 
z
" id="DejaVuSans-4e" transform="scale(0.015625)"/>
      <path d="M 1959 3097 
Q 1497 3097 1228 2736 
Q 959 2375 959 1747 
Q 959 1119 1226 758 
Q 1494 397 1959 397 
Q 2419 397 2687 759 
Q 2956 1122 2956 1747 
Q 2956 2369 2687 2733 
Q 2419 3097 1959 3097 
z
M 1959 3584 
Q 2709 3584 3137 3096 
Q 3566 2609 3566 1747 
Q 3566 888 3137 398 
Q 2709 -91 1959 -91 
Q 1206 -91 779 398 
Q 353 888 353 1747 
Q 353 2609 779 3096 
Q 1206 3584 1959 3584 
z
" id="DejaVuSans-6f" transform="scale(0.015625)"/>
      <path d="M 2631 2963 
Q 2534 3019 2420 3045 
Q 2306 3072 2169 3072 
Q 1681 3072 1420 2755 
Q 1159 2438 1159 1844 
L 1159 0 
L 581 0 
L 581 3500 
L 1159 3500 
L 1159 2956 
Q 1341 3275 1631 3429 
Q 1922 3584 2338 3584 
Q 2397 3584 2469 3576 
Q 2541 3569 2628 3553 
L 2631 2963 
z
" id="DejaVuSans-72" transform="scale(0.015625)"/>
      <path d="M 3513 2113 
L 3513 0 
L 2938 0 
L 2938 2094 
Q 2938 2591 2744 2837 
Q 2550 3084 2163 3084 
Q 1697 3084 1428 2787 
Q 1159 2491 1159 1978 
L 1159 0 
L 581 0 
L 581 4863 
L 1159 4863 
L 1159 2956 
Q 1366 3272 1645 3428 
Q 1925 3584 2291 3584 
Q 2894 3584 3203 3211 
Q 3513 2838 3513 2113 
z
" id="DejaVuSans-68" transform="scale(0.015625)"/>
     </defs>
     <use xlink:href="#DejaVuSans-47"/>
     <use x="77.490234" xlink:href="#DejaVuSans-61"/>
     <use x="138.769531" xlink:href="#DejaVuSans-74"/>
     <use x="177.978516" xlink:href="#DejaVuSans-75"/>
     <use x="241.357422" xlink:href="#DejaVuSans-6e"/>
     <use x="304.736328" xlink:href="#DejaVuSans-64"/>
     <use x="368.212891" xlink:href="#DejaVuSans-75"/>
     <use x="431.591797" xlink:href="#DejaVuSans-20"/>
     <use x="463.378906" xlink:href="#DejaVuSans-4e"/>
     <use x="538.183594" xlink:href="#DejaVuSans-6f"/>
     <use x="599.365234" xlink:href="#DejaVuSans-72"/>
     <use x="640.478516" xlink:href="#DejaVuSans-74"/>
     <use x="679.6875" xlink:href="#DejaVuSans-68"/>
    </g>
   </g>
   <g id="text_2">
    <!-- Kabete -->
    <g style="fill:#ffffff;" transform="translate(275.351495 563.419467)scale(0.08 -0.08)">
     <defs>
      <path d="M 628 4666 
L 1259 4666 
L 1259 2694 
L 3353 4666 
L 4166 4666 
L 1850 2491 
L 4331 0 
L 3500 0 
L 1259 2247 
L 1259 0 
L 628 0 
L 628 4666 
z
" id="DejaVuSans-4b" transform="scale(0.015625)"/>
      <path d="M 3116 1747 
Q 3116 2381 2855 2742 
Q 2594 3103 2138 3103 
Q 1681 3103 1420 2742 
Q 1159 2381 1159 1747 
Q 1159 1113 1420 752 
Q 1681 391 2138 391 
Q 2594 391 2855 752 
Q 3116 1113 3116 1747 
z
M 1159 2969 
Q 1341 3281 1617 3432 
Q 1894 3584 2278 3584 
Q 2916 3584 3314 3078 
Q 3713 2572 3713 1747 
Q 3713 922 3314 415 
Q 2916 -91 2278 -91 
Q 1894 -91 1617 61 
Q 1341 213 1159 525 
L 1159 0 
L 581 0 
L 581 4863 
L 1159 4863 
L 1159 2969 
z
" id="DejaVuSans-62" transform="scale(0.015625)"/>
      <path d="M 3597 1894 
L 3597 1613 
L 953 1613 
Q 991 1019 1311 708 
Q 1631 397 2203 397 
Q 2534 397 2845 478 
Q 3156 559 3463 722 
L 3463 178 
Q 3153 47 2828 -22 
Q 2503 -91 2169 -91 
Q 1331 -91 842 396 
Q 353 884 353 1716 
Q 353 2575 817 3079 
Q 1281 3584 2069 3584 
Q 2775 3584 3186 3129 
Q 3597 2675 3597 1894 
z
M 3022 2063 
Q 3016 2534 2758 2815 
Q 2500 3097 2075 3097 
Q 1594 3097 1305 2825 
Q 1016 2553 972 2059 
L 3022 2063 
z
" id="DejaVuSans-65" transform="scale(0.015625)"/>
     </defs>
     <use xlink:href="#DejaVuSans-4b"/>
     <use x="63.826172" xlink:href="#DejaVuSans-61"/>
     <use x="125.105469" xlink:href="#DejaVuSans-62"/>
     <use x="188.582031" xlink:href="#DejaVuSans-65"/>
     <use x="250.105469" xlink:href="#DejaVuSans-74"/>
     <use x="289.314453" xlink:href="#DejaVuSans-65"/>
    </g>
   </g>
   <g id="text_3">
    <!-- Kiambaa -->
    <g style="fill:#ffffff;" transform="translate(304.470633 527.475229)scale(0.08 -0.08)">
     <defs>
      <path d="M 603 3500 
L 1178 3500 
L 1178 0 
L 603 0 
L 603 3500 
z
M 603 4863 
L 1178 4863 
L 1178 4134 
L 603 4134 
L 603 4863 
z
" id="DejaVuSans-69" transform="scale(0.015625)"/>
      <path d="M 3328 2828 
Q 3544 3216 3844 3400 
Q 4144 3584 4550 3584 
Q 5097 3584 5394 3201 
Q 5691 2819 5691 2113 
L 5691 0 
L 5113 0 
L 5113 2094 
Q 5113 2597 4934 2840 
Q 4756 3084 4391 3084 
Q 3944 3084 3684 2787 
Q 3425 2491 3425 1978 
L 3425 0 
L 2847 0 
L 2847 2094 
Q 2847 2600 2669 2842 
Q 2491 3084 2119 3084 
Q 1678 3084 1418 2786 
Q 1159 2488 1159 1978 
L 1159 0 
L 581 0 
L 581 3500 
L 1159 3500 
L 1159 2956 
Q 1356 3278 1631 3431 
Q 1906 3584 2284 3584 
Q 2666 3584 2933 3390 
Q 3200 3197 3328 2828 
z
" id="DejaVuSans-6d" transform="scale(0.015625)"/>
     </defs>
     <use xlink:href="#DejaVuSans-4b"/>
     <use x="65.576172" xlink:href="#DejaVuSans-69"/>
     <use x="93.359375" xlink:href="#DejaVuSans-61"/>
     <use x="154.638672" xlink:href="#DejaVuSans-6d"/>
     <use x="252.050781" xlink:href="#DejaVuSans-62"/>
     <use x="315.527344" xlink:href="#DejaVuSans-61"/>
     <use x="376.806641" xlink:href="#DejaVuSans-61"/>
    </g>
   </g>
   <g id="text_4">
    <!-- Githunguri -->
    <g style="fill:#ffffff;" transform="translate(321.605106 446.947338)scale(0.08 -0.08)">
     <defs>
      <path d="M 2906 1791 
Q 2906 2416 2648 2759 
Q 2391 3103 1925 3103 
Q 1463 3103 1205 2759 
Q 947 2416 947 1791 
Q 947 1169 1205 825 
Q 1463 481 1925 481 
Q 2391 481 2648 825 
Q 2906 1169 2906 1791 
z
M 3481 434 
Q 3481 -459 3084 -895 
Q 2688 -1331 1869 -1331 
Q 1566 -1331 1297 -1286 
Q 1028 -1241 775 -1147 
L 775 -588 
Q 1028 -725 1275 -790 
Q 1522 -856 1778 -856 
Q 2344 -856 2625 -561 
Q 2906 -266 2906 331 
L 2906 616 
Q 2728 306 2450 153 
Q 2172 0 1784 0 
Q 1141 0 747 490 
Q 353 981 353 1791 
Q 353 2603 747 3093 
Q 1141 3584 1784 3584 
Q 2172 3584 2450 3431 
Q 2728 3278 2906 2969 
L 2906 3500 
L 3481 3500 
L 3481 434 
z
" id="DejaVuSans-67" transform="scale(0.015625)"/>
     </defs>
     <use xlink:href="#DejaVuSans-47"/>
     <use x="77.490234" xlink:href="#DejaVuSans-69"/>
     <use x="105.273438" xlink:href="#DejaVuSans-74"/>
     <use x="144.482422" xlink:href="#DejaVuSans-68"/>
     <use x="207.861328" xlink:href="#DejaVuSans-75"/>
     <use x="271.240234" xlink:href="#DejaVuSans-6e"/>
     <use x="334.619141" xlink:href="#DejaVuSans-67"/>
     <use x="398.095703" xlink:href="#DejaVuSans-75"/>
     <use x="461.474609" xlink:href="#DejaVuSans-72"/>
     <use x="502.587891" xlink:href="#DejaVuSans-69"/>
    </g>
   </g>
   <g id="text_5">
    <!-- Thika Town -->
    <g style="fill:#ffffff;" transform="translate(595.083811 450.531095)scale(0.08 -0.08)">
     <defs>
      <path d="M -19 4666 
L 3928 4666 
L 3928 4134 
L 2272 4134 
L 2272 0 
L 1638 0 
L 1638 4134 
L -19 4134 
L -19 4666 
z
" id="DejaVuSans-54" transform="scale(0.015625)"/>
      <path d="M 581 4863 
L 1159 4863 
L 1159 1991 
L 2875 3500 
L 3609 3500 
L 1753 1863 
L 3688 0 
L 2938 0 
L 1159 1709 
L 1159 0 
L 581 0 
L 581 4863 
z
" id="DejaVuSans-6b" transform="scale(0.015625)"/>
      <path d="M 269 3500 
L 844 3500 
L 1563 769 
L 2278 3500 
L 2956 3500 
L 3675 769 
L 4391 3500 
L 4966 3500 
L 4050 0 
L 3372 0 
L 2619 2869 
L 1863 0 
L 1184 0 
L 269 3500 
z
" id="DejaVuSans-77" transform="scale(0.015625)"/>
     </defs>
     <use xlink:href="#DejaVuSans-54"/>
     <use x="61.083984" xlink:href="#DejaVuSans-68"/>
     <use x="124.462891" xlink:href="#DejaVuSans-69"/>
     <use x="152.246094" xlink:href="#DejaVuSans-6b"/>
     <use x="208.40625" xlink:href="#DejaVuSans-61"/>
     <use x="269.685547" xlink:href="#DejaVuSans-20"/>
     <use x="301.472656" xlink:href="#DejaVuSans-54"/>
     <use x="345.556641" xlink:href="#DejaVuSans-6f"/>
     <use x="406.738281" xlink:href="#DejaVuSans-77"/>
     <use x="488.525391" xlink:href="#DejaVuSans-6e"/>
    </g>
   </g>
   <g id="text_6">
    <!-- Kikuyu -->
    <g style="fill:#ffffff;" transform="translate(202.670027 574.96002)scale(0.08 -0.08)">
     <defs>
      <path d="M 2059 -325 
Q 1816 -950 1584 -1140 
Q 1353 -1331 966 -1331 
L 506 -1331 
L 506 -850 
L 844 -850 
Q 1081 -850 1212 -737 
Q 1344 -625 1503 -206 
L 1606 56 
L 191 3500 
L 800 3500 
L 1894 763 
L 2988 3500 
L 3597 3500 
L 2059 -325 
z
" id="DejaVuSans-79" transform="scale(0.015625)"/>
     </defs>
     <use xlink:href="#DejaVuSans-4b"/>
     <use x="65.576172" xlink:href="#DejaVuSans-69"/>
     <use x="93.359375" xlink:href="#DejaVuSans-6b"/>
     <use x="148.144531" xlink:href="#DejaVuSans-75"/>
     <use x="211.523438" xlink:href="#DejaVuSans-79"/>
     <use x="270.703125" xlink:href="#DejaVuSans-75"/>
    </g>
   </g>
   <g id="text_7">
    <!-- Limuru -->
    <g style="fill:#ffffff;" transform="translate(228.423664 513.716159)scale(0.08 -0.08)">
     <defs>
      <path d="M 628 4666 
L 1259 4666 
L 1259 531 
L 3531 531 
L 3531 0 
L 628 0 
L 628 4666 
z
" id="DejaVuSans-4c" transform="scale(0.015625)"/>
     </defs>
     <use xlink:href="#DejaVuSans-4c"/>
     <use x="55.712891" xlink:href="#DejaVuSans-69"/>
     <use x="83.496094" xlink:href="#DejaVuSans-6d"/>
     <use x="180.908203" xlink:href="#DejaVuSans-75"/>
     <use x="244.287109" xlink:href="#DejaVuSans-72"/>
     <use x="285.400391" xlink:href="#DejaVuSans-75"/>
    </g>
   </g>
   <g id="text_8">
    <!-- Gatundu South -->
    <g style="fill:#ffffff;" transform="translate(319.507487 379.133254)scale(0.08 -0.08)">
     <defs>
      <path d="M 3425 4513 
L 3425 3897 
Q 3066 4069 2747 4153 
Q 2428 4238 2131 4238 
Q 1616 4238 1336 4038 
Q 1056 3838 1056 3469 
Q 1056 3159 1242 3001 
Q 1428 2844 1947 2747 
L 2328 2669 
Q 3034 2534 3370 2195 
Q 3706 1856 3706 1288 
Q 3706 609 3251 259 
Q 2797 -91 1919 -91 
Q 1588 -91 1214 -16 
Q 841 59 441 206 
L 441 856 
Q 825 641 1194 531 
Q 1563 422 1919 422 
Q 2459 422 2753 634 
Q 3047 847 3047 1241 
Q 3047 1584 2836 1778 
Q 2625 1972 2144 2069 
L 1759 2144 
Q 1053 2284 737 2584 
Q 422 2884 422 3419 
Q 422 4038 858 4394 
Q 1294 4750 2059 4750 
Q 2388 4750 2728 4690 
Q 3069 4631 3425 4513 
z
" id="DejaVuSans-53" transform="scale(0.015625)"/>
     </defs>
     <use xlink:href="#DejaVuSans-47"/>
     <use x="77.490234" xlink:href="#DejaVuSans-61"/>
     <use x="138.769531" xlink:href="#DejaVuSans-74"/>
     <use x="177.978516" xlink:href="#DejaVuSans-75"/>
     <use x="241.357422" xlink:href="#DejaVuSans-6e"/>
     <use x="304.736328" xlink:href="#DejaVuSans-64"/>
     <use x="368.212891" xlink:href="#DejaVuSans-75"/>
     <use x="431.591797" xlink:href="#DejaVuSans-20"/>
     <use x="463.378906" xlink:href="#DejaVuSans-53"/>
     <use x="526.855469" xlink:href="#DejaVuSans-6f"/>
     <use x="588.037109" xlink:href="#DejaVuSans-75"/>
     <use x="651.416016" xlink:href="#DejaVuSans-74"/>
     <use x="690.625" xlink:href="#DejaVuSans-68"/>
    </g>
   </g>
   <g id="text_9">
    <!-- Lari -->
    <g style="fill:#ffffff;" transform="translate(241.222524 351.636446)scale(0.08 -0.08)">
     <use xlink:href="#DejaVuSans-4c"/>
     <use x="55.712891" xlink:href="#DejaVuSans-61"/>
     <use x="116.992188" xlink:href="#DejaVuSans-72"/>
     <use x="158.105469" xlink:href="#DejaVuSans-69"/>
    </g>
   </g>
   <g id="text_10">
    <!-- Juja -->
    <g style="fill:#ffffff;" transform="translate(495.216219 484.790114)scale(0.08 -0.08)">
     <defs>
      <path d="M 628 4666 
L 1259 4666 
L 1259 325 
Q 1259 -519 939 -900 
Q 619 -1281 -91 -1281 
L -331 -1281 
L -331 -750 
L -134 -750 
Q 284 -750 456 -515 
Q 628 -281 628 325 
L 628 4666 
z
" id="DejaVuSans-4a" transform="scale(0.015625)"/>
      <path d="M 603 3500 
L 1178 3500 
L 1178 -63 
Q 1178 -731 923 -1031 
Q 669 -1331 103 -1331 
L -116 -1331 
L -116 -844 
L 38 -844 
Q 366 -844 484 -692 
Q 603 -541 603 -63 
L 603 3500 
z
M 603 4863 
L 1178 4863 
L 1178 4134 
L 603 4134 
L 603 4863 
z
" id="DejaVuSans-6a" transform="scale(0.015625)"/>
     </defs>
     <use xlink:href="#DejaVuSans-4a"/>
     <use x="29.492188" xlink:href="#DejaVuSans-75"/>
     <use x="92.871094" xlink:href="#DejaVuSans-6a"/>
     <use x="120.654297" xlink:href="#DejaVuSans-61"/>
    </g>
   </g>
   <g id="text_11">
    <!-- Ruiru -->
    <g style="fill:#ffffff;" transform="translate(495.095312 534.856063)scale(0.08 -0.08)">
     <defs>
      <path d="M 2841 2188 
Q 3044 2119 3236 1894 
Q 3428 1669 3622 1275 
L 4263 0 
L 3584 0 
L 2988 1197 
Q 2756 1666 2539 1819 
Q 2322 1972 1947 1972 
L 1259 1972 
L 1259 0 
L 628 0 
L 628 4666 
L 2053 4666 
Q 2853 4666 3247 4331 
Q 3641 3997 3641 3322 
Q 3641 2881 3436 2590 
Q 3231 2300 2841 2188 
z
M 1259 4147 
L 1259 2491 
L 2053 2491 
Q 2509 2491 2742 2702 
Q 2975 2913 2975 3322 
Q 2975 3731 2742 3939 
Q 2509 4147 2053 4147 
L 1259 4147 
z
" id="DejaVuSans-52" transform="scale(0.015625)"/>
     </defs>
     <use xlink:href="#DejaVuSans-52"/>
     <use x="64.982422" xlink:href="#DejaVuSans-75"/>
     <use x="128.361328" xlink:href="#DejaVuSans-69"/>
     <use x="156.144531" xlink:href="#DejaVuSans-72"/>
     <use x="197.257812" xlink:href="#DejaVuSans-75"/>
    </g>
   </g>
   <g id="text_12">
    <!-- Kiambu -->
    <g style="fill:#ffffff;" transform="translate(361.943195 522.931536)scale(0.08 -0.08)">
     <use xlink:href="#DejaVuSans-4b"/>
     <use x="65.576172" xlink:href="#DejaVuSans-69"/>
     <use x="93.359375" xlink:href="#DejaVuSans-61"/>
     <use x="154.638672" xlink:href="#DejaVuSans-6d"/>
     <use x="252.050781" xlink:href="#DejaVuSans-62"/>
     <use x="315.527344" xlink:href="#DejaVuSans-75"/>
    </g>
   </g>
  </g>
 </g>
 <defs>
  <clipPath id="p1feb43813a">
   <rect height="426.125869" width="669.6" x="108" y="216.777066"/>
  </clipPath>
 </defs>
</svg>
